org.zhangbai.display/src/org/zhangbai/display/readfile/20171202_15_25_47/tek0016.csv

Model,DPO4104B
Firmware Version,1.38

Waveform Type,Analog,Analog,Analog,Analog
Point Format,ENV,,,
Horizontal Units,s,,,
Horizontal Scale,1e-05,,,
Horizontal Delay,0,0,0,0
Sample Interval,1e-08,,,
Record Length,10000,,,
Gating,0.0% to 100.0%,0.0% to 100.0%,0.0% to 100.0%,0.0% to 100.0%
Probe Attenuation,1,1,1,1
Vertical Units,V,V,V,V
Vertical Offset,0,0,0,0
Vertical Scale,0.2,0.2,0.1,5
Vertical Position,-4.6,-1.1,-0.64,-0.54
Label,,,,
TIME,CH1,CH2,CH3,CH4
-5.0000e-05,0.102,0.0534688,0.00515625,-0.173437
-4.9990e-05,0.103781,0.0520938,0.007125,-0.171875
-4.9980e-05,0.101281,0.051875,0.00507813,-0.184375
-4.9970e-05,0.101156,0.0515938,0.00651562,-0.164844
-4.9960e-05,0.10375,0.0520625,0.00642188,-0.161719
-4.9950e-05,0.104406,0.0531875,0.007,-0.146875
-4.9940e-05,0.103781,0.050875,0.00628125,-0.202344
-4.9930e-05,0.103406,0.0511563,0.00757812,-0.146094
-4.9920e-05,0.103563,0.054625,0.007,-0.185938
-4.9910e-05,0.103094,0.0545625,0.00573437,-0.184375
-4.9900e-05,0.1025,0.0512813,0.00564063,-0.199219
-4.9890e-05,0.101063,0.052375,0.00554687,-0.201563
-4.9880e-05,0.102938,0.0523438,0.00625,-0.1875
-4.9870e-05,0.102375,0.0505313,0.00514063,-0.150781
-4.9860e-05,0.104156,0.0508125,0.0041875,-0.155469
-4.9850e-05,0.103094,0.0537188,0.00567187,-0.154688
-4.9840e-05,0.101375,0.0522188,0.00604688,-0.15625
-4.9830e-05,0.101469,0.0514375,0.00623438,-0.163281
-4.9820e-05,0.104063,0.0477813,0.00704688,-0.174219
-4.9810e-05,0.102781,0.0500625,0.00528125,-0.171094
-4.9800e-05,0.103344,0.051625,0.00567187,-0.155469
-4.9790e-05,0.101188,0.0525938,0.00590625,-0.161719
-4.9780e-05,0.101781,0.0528125,0.00560937,-0.203906
-4.9770e-05,0.101781,0.0516875,0.0055625,-0.167187
-4.9760e-05,0.100063,0.0507188,0.00571875,-0.214844
-4.9750e-05,0.10275,0.05375,0.00673438,-0.185156
-4.9740e-05,0.101813,0.053625,0.00703125,-0.186719
-4.9730e-05,0.100594,0.05375,0.00665625,-0.166406
-4.9720e-05,0.104625,0.0514063,0.0080625,-0.152344
-4.9710e-05,0.100219,0.05,0.00823438,-0.164844
-4.9700e-05,0.10475,0.054,0.00725,-0.189062
-4.9690e-05,0.104094,0.0500313,0.00695312,-0.239063
-4.9680e-05,0.103469,0.0528125,0.0065625,-0.164062
-4.9670e-05,0.106219,0.0504375,0.00665625,-0.196875
-4.9660e-05,0.104188,0.0525,0.00601562,-0.175781
-4.9650e-05,0.102469,0.0548125,0.00546875,-0.2375
-4.9640e-05,0.105031,0.0506563,0.0066875,-0.169531
-4.9630e-05,0.102281,0.0514063,0.00503125,-0.191406
-4.9620e-05,0.10425,0.0497188,0.00601562,-0.190625
-4.9610e-05,0.104875,0.0525625,0.0058125,-0.178125
-4.9600e-05,0.101375,0.05225,0.00601562,-0.210938
-4.9590e-05,0.102969,0.051375,0.0069375,-0.149219
-4.9580e-05,0.103563,0.0515313,0.00689062,-0.125
-4.9570e-05,0.100313,0.0518125,0.00598438,-0.225781
-4.9560e-05,0.101813,0.05175,0.00639062,-0.192188
-4.9550e-05,0.101844,0.0501875,0.00615625,-0.180469
-4.9540e-05,0.101938,0.0521875,0.00640625,-0.164062
-4.9530e-05,0.101656,0.0545625,0.00657812,-0.154688
-4.9520e-05,0.1005,0.05075,0.00570313,-0.141406
-4.9510e-05,0.102563,0.05075,0.005875,-0.157812
-4.9500e-05,0.105844,0.0509688,0.00532813,-0.207031
-4.9490e-05,0.103,0.0531563,0.00534375,-0.170313
-4.9480e-05,0.101781,0.0512813,0.006,-0.196094
-4.9470e-05,0.102719,0.0524063,0.006375,-0.214062
-4.9460e-05,0.105125,0.0517813,0.00607812,-0.20625
-4.9450e-05,0.1045,0.0505313,0.00651562,-0.153125
-4.9440e-05,0.101375,0.0523125,0.0055,-0.19375
-4.9430e-05,0.103594,0.0529688,0.00660938,-0.192969
-4.9420e-05,0.104938,0.0525,0.0063125,-0.213281
-4.9410e-05,0.102875,0.0487188,0.00695312,-0.20625
-4.9400e-05,0.100188,0.055,0.0056875,-0.215625
-4.9390e-05,0.101906,0.0504063,0.00696875,-0.175781
-4.9380e-05,0.104375,0.0520313,0.00503125,-0.14375
-4.9370e-05,0.10175,0.0527813,0.00539063,-0.205469
-4.9360e-05,0.0994688,0.0511875,0.0061875,-0.121094
-4.9350e-05,0.101594,0.0515625,0.00528125,-0.144531
-4.9340e-05,0.102125,0.04975,0.00773438,-0.239063
-4.9330e-05,0.102094,0.0505625,0.00567187,-0.222656
-4.9320e-05,0.1045,0.052375,0.00598438,-0.140625
-4.9310e-05,0.104094,0.0516875,0.0071875,-0.196875
-4.9300e-05,0.103281,0.052375,0.00571875,-0.188281
-4.9290e-05,0.102188,0.0524688,0.0065625,-0.174219
-4.9280e-05,0.103406,0.0507813,0.00495313,-0.132031
-4.9270e-05,0.101125,0.0518125,0.00492187,-0.174219
-4.9260e-05,0.103656,0.0523125,0.00432813,-0.215625
-4.9250e-05,0.104031,0.0535,0.00489063,-0.159375
-4.9240e-05,0.102344,0.0528125,0.00482813,-0.176563
-4.9230e-05,0.100656,0.0512188,0.00607812,-0.14375
-4.9220e-05,0.103063,0.0512813,0.00576563,-0.174219
-4.9210e-05,0.101906,0.0515625,0.00564063,-0.177344
-4.9200e-05,0.105813,0.0520313,0.00548437,-0.171094
-4.9190e-05,0.102,0.0527813,0.00525,-0.207813
-4.9180e-05,0.102313,0.0518438,0.00657812,-0.197656
-4.9170e-05,0.10425,0.055125,0.00701562,-0.203125
-4.9160e-05,0.101625,0.052375,0.00546875,-0.135937
-4.9150e-05,0.1025,0.0506875,0.00501563,-0.173437
-4.9140e-05,0.103125,0.0507188,0.00621875,-0.146094
-4.9130e-05,0.103188,0.052,0.00584375,-0.142969
-4.9120e-05,0.103688,0.0525938,0.005,-0.220312
-4.9110e-05,0.102938,0.0504375,0.00565625,-0.269531
-4.9100e-05,0.104031,0.0517188,0.00492187,-0.148438
-4.9090e-05,0.102594,0.0525,0.00653125,-0.19375
-4.9080e-05,0.101875,0.05375,0.00501563,-0.2125
-4.9070e-05,0.101156,0.0524063,0.00670312,-0.171875
-4.9060e-05,0.104094,0.0530313,0.00667188,-0.185938
-4.9050e-05,0.101969,0.0533438,0.00675,-0.210156
-4.9040e-05,0.102281,0.0523125,0.00560937,-0.149219
-4.9030e-05,0.102406,0.0518125,0.00514063,-0.153906
-4.9020e-05,0.104125,0.0520625,0.00528125,-0.199219
-4.9010e-05,0.104625,0.0526875,0.007125,-0.188281
-4.9000e-05,0.102969,0.052375,0.00529687,-0.0945313
-4.8990e-05,0.104531,0.0507188,0.00535937,-0.151562
-4.8980e-05,0.101781,0.04925,0.00529687,-0.178125
-4.8970e-05,0.105438,0.0508125,0.00510937,-0.170313
-4.8960e-05,0.105219,0.0523125,0.00560937,-0.178125
-4.8950e-05,0.1035,0.0515,0.0045625,-0.199219
-4.8940e-05,0.105781,0.0496875,0.00615625,-0.203125
-4.8930e-05,0.105,0.053125,0.00557813,-0.195312
-4.8920e-05,0.104313,0.0520625,0.00692188,-0.174219
-4.8910e-05,0.1035,0.0516563,0.005375,-0.117969
-4.8900e-05,0.100438,0.0506563,0.0065,-0.207031
-4.8890e-05,0.103594,0.0504375,0.00695312,-0.114063
-4.8880e-05,0.102813,0.05325,0.00689062,-0.207031
-4.8870e-05,0.102406,0.05225,0.00601562,-0.159375
-4.8860e-05,0.104438,0.0522813,0.0051875,-0.141406
-4.8850e-05,0.106031,0.0524063,0.00528125,-0.239844
-4.8840e-05,0.105219,0.0519688,0.00557813,-0.133594
-4.8830e-05,0.103594,0.0496875,0.00482813,-0.14375
-4.8820e-05,0.103281,0.0523438,0.00542187,-0.155469
-4.8810e-05,0.105438,0.0504063,0.00579687,-0.166406
-4.8800e-05,0.106406,0.052375,0.00621875,-0.126562
-4.8790e-05,0.103438,0.0497813,0.00595313,-0.19375
-4.8780e-05,0.105063,0.0508438,0.00642188,-0.202344
-4.8770e-05,0.104188,0.0526563,0.00621875,-0.185938
-4.8760e-05,0.102844,0.048875,0.00625,-0.149219
-4.8750e-05,0.102438,0.0516875,0.00632812,-0.175
-4.8740e-05,0.102625,0.052375,0.00671875,-0.164062
-4.8730e-05,0.102125,0.0530938,0.00525,-0.169531
-4.8720e-05,0.104125,0.0520313,0.00559375,-0.113281
-4.8710e-05,0.103188,0.0518125,0.0055,-0.152344
-4.8700e-05,0.102438,0.0522188,0.00478125,-0.207031
-4.8690e-05,0.103969,0.0506563,0.0065625,-0.196094
-4.8680e-05,0.104594,0.0519375,0.00573437,-0.195312
-4.8670e-05,0.103906,0.0507188,0.00579687,-0.15
-4.8660e-05,0.102375,0.0510938,0.00679688,-0.182031
-4.8650e-05,0.1025,0.0535,0.006125,-0.21875
-4.8640e-05,0.103875,0.0512813,0.00639062,-0.167969
-4.8630e-05,0.104,0.0512813,0.00707812,-0.185156
-4.8620e-05,0.104344,0.0529063,0.00514063,-0.213281
-4.8610e-05,0.102313,0.0529688,0.0054375,-0.175781
-4.8600e-05,0.101969,0.0510625,0.00582813,-0.209375
-4.8590e-05,0.104219,0.0493125,0.0069375,-0.222656
-4.8580e-05,0.103219,0.0494063,0.00626562,-0.167187
-4.8570e-05,0.104063,0.0515938,0.00564063,-0.182031
-4.8560e-05,0.102094,0.0527813,0.0055,-0.15625
-4.8550e-05,0.101656,0.0538438,0.0065,-0.166406
-4.8540e-05,0.102875,0.0529688,0.00545313,-0.227344
-4.8530e-05,0.103406,0.0522188,0.00542187,-0.105469
-4.8520e-05,0.102844,0.0508125,0.0063125,-0.166406
-4.8510e-05,0.100031,0.0515313,0.00640625,-0.204687
-4.8500e-05,0.102406,0.0514375,0.00595313,-0.178125
-4.8490e-05,0.100906,0.0517813,0.00479687,-0.185938
-4.8480e-05,0.103094,0.0513438,0.00570313,-0.196875
-4.8470e-05,0.104,0.0507813,0.00548437,-0.203906
-4.8460e-05,0.103156,0.0524688,0.00478125,-0.202344
-4.8450e-05,0.101438,0.051375,0.00585938,-0.164844
-4.8440e-05,0.102781,0.0516875,0.00465625,-0.130469
-4.8430e-05,0.103281,0.0518125,0.00495313,-0.197656
-4.8420e-05,0.103875,0.0524375,0.00679688,-0.167187
-4.8410e-05,0.1015,0.0495625,0.00514063,-0.202344
-4.8400e-05,0.100375,0.0524063,0.00576563,-0.163281
-4.8390e-05,0.102156,0.0517813,0.00615625,-0.217188
-4.8380e-05,0.101719,0.0496563,0.00682812,-0.152344
-4.8370e-05,0.104938,0.0511875,0.00664062,-0.132031
-4.8360e-05,0.103719,0.0520938,0.00557813,-0.185156
-4.8350e-05,0.103219,0.0499063,0.00501563,-0.175
-4.8340e-05,0.102094,0.0529688,0.0056875,-0.147656
-4.8330e-05,0.104094,0.053375,0.00517187,-0.136719
-4.8320e-05,0.100719,0.0490625,0.00560937,-0.155469
-4.8310e-05,0.104406,0.0529688,0.00573437,-0.154688
-4.8300e-05,0.103531,0.0529063,0.0051875,-0.189844
-4.8290e-05,0.103938,0.0525938,0.005625,-0.142187
-4.8280e-05,0.103375,0.054125,0.00559375,-0.217969
-4.8270e-05,0.103375,0.051,0.00496875,-0.19375
-4.8260e-05,0.102656,0.0503438,0.00610938,-0.217188
-4.8250e-05,0.101438,0.0507813,0.00690625,-0.208594
-4.8240e-05,0.101938,0.0500938,0.00453125,-0.185156
-4.8230e-05,0.103781,0.0526875,0.00651562,-0.198437
-4.8220e-05,0.103375,0.0520938,0.007,-0.176563
-4.8210e-05,0.101438,0.050875,0.0070625,-0.234375
-4.8200e-05,0.104875,0.052875,0.0055625,-0.134375
-4.8190e-05,0.106,0.05075,0.00573437,-0.126562
-4.8180e-05,0.106469,0.0518438,0.00521875,-0.160938
-4.8170e-05,0.105656,0.0536563,0.00540625,-0.160156
-4.8160e-05,0.100406,0.0530313,0.00453125,-0.151562
-4.8150e-05,0.102375,0.05325,0.00665625,-0.239063
-4.8140e-05,0.103875,0.0528438,0.00590625,-0.201563
-4.8130e-05,0.102938,0.0496875,0.00520313,-0.182812
-4.8120e-05,0.103094,0.0502813,0.00664062,-0.257031
-4.8110e-05,0.10325,0.05225,0.00515625,-0.163281
-4.8100e-05,0.102094,0.0518125,0.0055625,-0.222656
-4.8090e-05,0.102156,0.0509063,0.00685938,-0.178906
-4.8080e-05,0.102156,0.0541875,0.00628125,-0.180469
-4.8070e-05,0.102938,0.0492813,0.00589063,-0.185156
-4.8060e-05,0.102594,0.0506563,0.00479687,-0.179688
-4.8050e-05,0.104156,0.0525,0.006125,-0.214062
-4.8040e-05,0.103625,0.0530625,0.00789062,-0.1625
-4.8030e-05,0.103906,0.0522188,0.00673438,-0.167187
-4.8020e-05,0.104031,0.0530625,0.00564063,-0.158594
-4.8010e-05,0.102344,0.0525313,0.00778125,-0.165625
-4.8000e-05,0.102563,0.052875,0.00485937,-0.221875
-4.7990e-05,0.10325,0.05325,0.00546875,-0.182031
-4.7980e-05,0.101563,0.0501875,0.00570313,-0.159375
-4.7970e-05,0.10325,0.050625,0.00645312,-0.160938
-4.7960e-05,0.103938,0.0506875,0.00598438,-0.163281
-4.7950e-05,0.103188,0.0504063,0.004625,-0.140625
-4.7940e-05,0.103125,0.0524688,0.0055625,-0.196875
-4.7930e-05,0.103906,0.0531563,0.00692188,-0.2
-4.7920e-05,0.104,0.0529063,0.00496875,-0.217969
-4.7910e-05,0.103344,0.053,0.0061875,-0.24375
-4.7900e-05,0.103344,0.0503125,0.005125,-0.15625
-4.7890e-05,0.103063,0.0535313,0.00645312,-0.160156
-4.7880e-05,0.100813,0.05175,0.00689062,-0.197656
-4.7870e-05,0.102406,0.0489063,0.00421875,-0.142969
-4.7860e-05,0.101438,0.0534688,0.00642188,-0.175
-4.7850e-05,0.102906,0.0539375,0.00632812,-0.219531
-4.7840e-05,0.104031,0.0519063,0.0064375,-0.175
-4.7830e-05,0.1025,0.0527188,0.00692188,-0.153125
-4.7820e-05,0.104219,0.050375,0.00559375,-0.191406
-4.7810e-05,0.102906,0.0504688,0.00507813,-0.157031
-4.7800e-05,0.103406,0.0524063,0.00654688,-0.175
-4.7790e-05,0.101594,0.0508438,0.00703125,-0.169531
-4.7780e-05,0.103781,0.051875,0.00664062,-0.126562
-4.7770e-05,0.101719,0.0516875,0.00604688,-0.140625
-4.7760e-05,0.104375,0.0539688,0.00623438,-0.225781
-4.7750e-05,0.1025,0.0528438,0.00529687,-0.146875
-4.7740e-05,0.101375,0.0500938,0.00523437,-0.239063
-4.7730e-05,0.103844,0.0511875,0.00525,-0.158594
-4.7720e-05,0.103813,0.0511875,0.00495313,-0.20625
-4.7710e-05,0.102094,0.0515313,0.00509375,-0.180469
-4.7700e-05,0.103531,0.052125,0.00542187,-0.155469
-4.7690e-05,0.102969,0.0517813,0.00473437,-0.163281
-4.7680e-05,0.102,0.0496875,0.00557813,-0.180469
-4.7670e-05,0.103063,0.0502188,0.00575,-0.217969
-4.7660e-05,0.102969,0.054125,0.0045,-0.18125
-4.7650e-05,0.102656,0.0510625,0.00496875,-0.15625
-4.7640e-05,0.101813,0.052,0.0066875,-0.221094
-4.7630e-05,0.10225,0.0529375,0.00607812,-0.157031
-4.7620e-05,0.103063,0.0520938,0.00675,-0.141406
-4.7610e-05,0.103656,0.0509375,0.0065625,-0.18125
-4.7600e-05,0.101844,0.0518438,0.00525,-0.166406
-4.7590e-05,0.102563,0.048625,0.00590625,-0.180469
-4.7580e-05,0.102063,0.0520625,0.00601562,-0.221094
-4.7570e-05,0.101438,0.0522188,0.00521875,-0.163281
-4.7560e-05,0.104625,0.0511875,0.0053125,-0.26875
-4.7550e-05,0.101906,0.050375,0.006875,-0.170313
-4.7540e-05,0.102438,0.052,0.00640625,-0.203906
-4.7530e-05,0.104344,0.0520938,0.00579687,-0.173437
-4.7520e-05,0.100938,0.050625,0.00579687,-0.167187
-4.7510e-05,0.105563,0.0501875,0.0055625,-0.175
-4.7500e-05,0.104219,0.0539375,0.00565625,-0.125781
-4.7490e-05,0.10575,0.051375,0.00523437,-0.209375
-4.7480e-05,0.102281,0.052125,0.0066875,-0.222656
-4.7470e-05,0.10475,0.0508125,0.00603125,-0.234375
-4.7460e-05,0.100563,0.0518125,0.00601562,-0.18125
-4.7450e-05,0.104063,0.0488438,0.00567187,-0.173437
-4.7440e-05,0.102,0.0515313,0.00460937,-0.147656
-4.7430e-05,0.104125,0.05125,0.00498437,-0.122656
-4.7420e-05,0.101375,0.0520313,0.00667188,-0.163281
-4.7410e-05,0.102656,0.0520938,0.00735938,-0.180469
-4.7400e-05,0.100969,0.0515625,0.00559375,-0.164062
-4.7390e-05,0.103656,0.0500625,0.00673438,-0.221094
-4.7380e-05,0.103594,0.0516563,0.00604688,-0.160938
-4.7370e-05,0.105219,0.0530625,0.00639062,-0.209375
-4.7360e-05,0.101563,0.0514063,0.0058125,-0.14375
-4.7350e-05,0.105188,0.0520625,0.00617188,-0.179688
-4.7340e-05,0.102531,0.0518438,0.00614062,-0.14375
-4.7330e-05,0.102063,0.0517188,0.0050625,-0.157031
-4.7320e-05,0.101813,0.0517188,0.00470313,-0.153906
-4.7310e-05,0.101906,0.0491563,0.00579687,-0.174219
-4.7300e-05,0.100688,0.0508438,0.00390625,-0.149219
-4.7290e-05,0.104063,0.053125,0.005875,-0.2125
-4.7280e-05,0.102719,0.0505625,0.00528125,-0.194531
-4.7270e-05,0.099,0.055,0.00495313,-0.159375
-4.7260e-05,0.100531,0.0508125,0.00703125,-0.178906
-4.7250e-05,0.104406,0.0502188,0.00648438,-0.172656
-4.7240e-05,0.103563,0.0520938,0.0070625,-0.214844
-4.7230e-05,0.103344,0.053625,0.00604688,-0.235937
-4.7220e-05,0.101156,0.0534375,0.00601562,-0.203125
-4.7210e-05,0.102938,0.0532188,0.006375,-0.165625
-4.7200e-05,0.100781,0.05175,0.00575,-0.142187
-4.7190e-05,0.102313,0.0518125,0.00584375,-0.213281
-4.7180e-05,0.103688,0.0529375,0.00495313,-0.0984375
-4.7170e-05,0.102344,0.0537813,0.00576563,-0.175
-4.7160e-05,0.0995,0.052875,0.00557813,-0.175781
-4.7150e-05,0.101531,0.0515625,0.00534375,-0.176563
-4.7140e-05,0.102125,0.0518438,0.0055625,-0.178906
-4.7130e-05,0.102531,0.052,0.00570313,-0.2
-4.7120e-05,0.104,0.053625,0.00704688,-0.154688
-4.7110e-05,0.101531,0.0535938,0.00725,-0.211719
-4.7100e-05,0.101969,0.0539688,0.00609375,-0.204687
-4.7090e-05,0.104219,0.0532188,0.00659375,-0.1625
-4.7080e-05,0.100563,0.0527813,0.00570313,-0.10625
-4.7070e-05,0.103281,0.0529063,0.007125,-0.157031
-4.7060e-05,0.10175,0.0513438,0.0059375,-0.172656
-4.7050e-05,0.101844,0.0535625,0.00676562,-0.13125
-4.7040e-05,0.102781,0.0529375,0.00459375,-0.161719
-4.7030e-05,0.101906,0.051875,0.00603125,-0.164062
-4.7020e-05,0.104781,0.05325,0.00576563,-0.167187
-4.7010e-05,0.102875,0.0517188,0.00539063,-0.217969
-4.7000e-05,0.102719,0.0529063,0.00557813,-0.171875
-4.6990e-05,0.104656,0.050875,0.00573437,-0.166406
-4.6980e-05,0.101688,0.050875,0.00642188,-0.189062
-4.6970e-05,0.101125,0.051875,0.00639062,-0.153125
-4.6960e-05,0.102969,0.0514063,0.00542187,-0.171875
-4.6950e-05,0.103844,0.0553438,0.00654688,-0.207031
-4.6940e-05,0.100656,0.0524688,0.0064375,-0.152344
-4.6930e-05,0.102813,0.0548125,0.00595313,-0.165625
-4.6920e-05,0.101781,0.053875,0.006375,-0.253125
-4.6910e-05,0.101375,0.0518438,0.00614062,-0.171094
-4.6900e-05,0.103531,0.0519688,0.005875,-0.177344
-4.6890e-05,0.104188,0.0525313,0.00542187,-0.175781
-4.6880e-05,0.102906,0.053875,0.0059375,-0.202344
-4.6870e-05,0.103688,0.0523125,0.00517187,-0.151562
-4.6860e-05,0.102688,0.052375,0.00648438,-0.199219
-4.6850e-05,0.103375,0.0523438,0.00679688,-0.150781
-4.6840e-05,0.100375,0.05275,0.00598438,-0.142187
-4.6830e-05,0.103813,0.0544063,0.00557813,-0.242969
-4.6820e-05,0.102375,0.0518438,0.0068125,-0.197656
-4.6810e-05,0.10325,0.052125,0.00659375,-0.178125
-4.6800e-05,0.102875,0.052375,0.004625,-0.157812
-4.6790e-05,0.102875,0.0516875,0.005625,-0.170313
-4.6780e-05,0.104188,0.0513125,0.00617188,-0.123438
-4.6770e-05,0.102625,0.0526875,0.00703125,-0.183594
-4.6760e-05,0.103656,0.0528125,0.00539063,-0.176563
-4.6750e-05,0.10075,0.05525,0.0054375,-0.178125
-4.6740e-05,0.102125,0.051625,0.00529687,-0.172656
-4.6730e-05,0.101125,0.0504063,0.00742188,-0.209375
-4.6720e-05,0.101656,0.0554688,0.00617188,-0.170313
-4.6710e-05,0.102063,0.0536563,0.00592188,-0.242188
-4.6700e-05,0.102094,0.05225,0.00704688,-0.21875
-4.6690e-05,0.103281,0.0509688,0.00659375,-0.23125
-4.6680e-05,0.102313,0.0519688,0.00565625,-0.198437
-4.6670e-05,0.105594,0.05225,0.00484375,-0.178125
-4.6660e-05,0.103063,0.0534688,0.00526563,-0.188281
-4.6650e-05,0.102563,0.0514375,0.0059375,-0.175781
-4.6640e-05,0.101219,0.05575,0.00589063,-0.146875
-4.6630e-05,0.102625,0.0535625,0.006125,-0.208594
-4.6620e-05,0.103219,0.052,0.00576563,-0.192188
-4.6610e-05,0.103031,0.0527813,0.00521875,-0.197656
-4.6600e-05,0.103094,0.0493438,0.0058125,-0.190625
-4.6590e-05,0.102563,0.0521875,0.00521875,-0.184375
-4.6580e-05,0.102594,0.0516875,0.00648438,-0.173437
-4.6570e-05,0.104313,0.049625,0.00596875,-0.216406
-4.6560e-05,0.102188,0.0516875,0.00629688,-0.228125
-4.6550e-05,0.104469,0.05375,0.00635938,-0.210156
-4.6540e-05,0.102188,0.05425,0.00476563,-0.196094
-4.6530e-05,0.102469,0.05,0.0065625,-0.20625
-4.6520e-05,0.101656,0.0537188,0.00567187,-0.132031
-4.6510e-05,0.104188,0.0535313,0.00557813,-0.194531
-4.6500e-05,0.102531,0.0525938,0.0060625,-0.175
-4.6490e-05,0.102375,0.0527813,0.00629688,-0.140625
-4.6480e-05,0.102344,0.0522813,0.00742188,-0.14375
-4.6470e-05,0.103719,0.0505938,0.0065625,-0.192969
-4.6460e-05,0.103219,0.0501563,0.00678125,-0.204687
-4.6450e-05,0.102813,0.0535938,0.0069375,-0.18125
-4.6440e-05,0.101563,0.05425,0.0079375,-0.259375
-4.6430e-05,0.102813,0.0523438,0.00701562,-0.1375
-4.6420e-05,0.102125,0.051375,0.00773438,-0.163281
-4.6410e-05,0.101125,0.051875,0.00615625,-0.189062
-4.6400e-05,0.103531,0.0515313,0.00628125,-0.175
-4.6390e-05,0.1035,0.0519375,0.0043125,-0.203906
-4.6380e-05,0.105313,0.0539688,0.00559375,-0.182031
-4.6370e-05,0.101719,0.0521563,0.00678125,-0.224219
-4.6360e-05,0.101594,0.0519375,0.006125,-0.196875
-4.6350e-05,0.103969,0.0525,0.00560937,-0.204687
-4.6340e-05,0.103281,0.0529688,0.00520313,-0.224219
-4.6330e-05,0.102688,0.0529063,0.0051875,-0.1625
-4.6320e-05,0.102438,0.0522813,0.00535937,-0.203906
-4.6310e-05,0.101813,0.051125,0.00620312,-0.200781
-4.6300e-05,0.103531,0.0535938,0.00634375,-0.116406
-4.6290e-05,0.102563,0.0506875,0.00554687,-0.208594
-4.6280e-05,0.104531,0.0503125,0.0065625,-0.165625
-4.6270e-05,0.102406,0.0533438,0.00660938,-0.177344
-4.6260e-05,0.103219,0.0537813,0.00720312,-0.2125
-4.6250e-05,0.102313,0.0530938,0.00692188,-0.253125
-4.6240e-05,0.102031,0.0520625,0.007125,-0.203125
-4.6230e-05,0.1025,0.0500313,0.00578125,-0.199219
-4.6220e-05,0.101344,0.0524688,0.00551563,-0.169531
-4.6210e-05,0.102,0.05075,0.00671875,-0.185938
-4.6200e-05,0.103156,0.0495625,0.0056875,-0.160938
-4.6190e-05,0.101906,0.0535,0.0059375,-0.148438
-4.6180e-05,0.101938,0.05175,0.00565625,-0.158594
-4.6170e-05,0.101875,0.0522188,0.00629688,-0.159375
-4.6160e-05,0.102,0.050375,0.00523437,-0.200781
-4.6150e-05,0.101313,0.0541563,0.00690625,-0.103906
