org.zhangbai.display/src/org/zhangbai/display/readfile/20171202_19_56_45/tek0008.csv

Model,DPO4104B
Firmware Version,1.38

Waveform Type,Analog,Analog,Analog,Analog
Point Format,ENV,,,
Horizontal Units,s,,,
Horizontal Scale,1e-05,,,
Horizontal Delay,0,0,0,0
Sample Interval,1e-08,,,
Record Length,10000,,,
Gating,0.0% to 100.0%,0.0% to 100.0%,0.0% to 100.0%,0.0% to 100.0%
Probe Attenuation,1,1,1,1
Vertical Units,V,V,V,V
Vertical Offset,0,0,0,0
Vertical Scale,0.05,0.2,0.1,5
Vertical Position,-3.08,-1.58,-0.7,-0.96
Label,,,,
TIME,CH1,CH2,CH3,CH4
-5.0000e-05,0.08375,0.0669063,0.00703125,-0.239844
-4.9990e-05,0.0830859,0.0669375,0.00725,-0.239062
-4.9980e-05,0.0821797,0.0695625,0.00623438,-0.25625
-4.9970e-05,0.0830937,0.0684687,0.00721875,-0.216406
-4.9960e-05,0.0821719,0.0701563,0.007875,-0.295312
-4.9950e-05,0.0829687,0.0680312,0.00617188,-0.232031
-4.9940e-05,0.0831641,0.0686563,0.00626563,-0.230469
-4.9930e-05,0.0832031,0.0674063,0.00576563,-0.210938
-4.9920e-05,0.0833672,0.0668125,0.00598438,-0.277344
-4.9910e-05,0.0834531,0.0716563,0.00645313,-0.285937
-4.9900e-05,0.0834531,0.0694063,0.00703125,-0.285156
-4.9890e-05,0.0826016,0.0680625,0.00676563,-0.23125
-4.9880e-05,0.0815078,0.0675312,0.00782813,-0.194531
-4.9870e-05,0.0806641,0.0683125,0.00782813,-0.278906
-4.9860e-05,0.0815937,0.0663125,0.0090625,-0.249219
-4.9850e-05,0.0816094,0.0701875,0.00765625,-0.185937
-4.9840e-05,0.0802812,0.0685938,0.00726563,-0.207031
-4.9830e-05,0.0823672,0.0682187,0.00701563,-0.216406
-4.9820e-05,0.0822734,0.071,0.00639063,-0.289844
-4.9810e-05,0.0825859,0.0671875,0.00707813,-0.3
-4.9800e-05,0.0845234,0.0695625,0.00639063,-0.242188
-4.9790e-05,0.0827422,0.0679375,0.00504688,-0.222656
-4.9780e-05,0.0851797,0.0687812,0.00548437,-0.228906
-4.9770e-05,0.0844141,0.0688125,0.00670313,-0.210938
-4.9760e-05,0.0840937,0.0683125,0.00682813,-0.29375
-4.9750e-05,0.0840078,0.0667812,0.00571875,-0.261719
-4.9740e-05,0.0826875,0.068875,0.00648438,-0.238281
-4.9730e-05,0.0831406,0.066125,0.00540625,-0.24375
-4.9720e-05,0.0819844,0.0686875,0.0070625,-0.273438
-4.9710e-05,0.0817734,0.0687812,0.00590625,-0.201562
-4.9700e-05,0.0826484,0.0710312,0.0075625,-0.225
-4.9690e-05,0.0813672,0.0674375,0.00634375,-0.232031
-4.9680e-05,0.0817812,0.0685625,0.005625,-0.235156
-4.9670e-05,0.0815312,0.0660312,0.00609375,-0.28125
-4.9660e-05,0.0819141,0.0676875,0.00660938,-0.276562
-4.9650e-05,0.0825469,0.0659688,0.00721875,-0.257812
-4.9640e-05,0.0814531,0.06825,0.00717188,-0.230469
-4.9630e-05,0.0816328,0.065875,0.0071875,-0.228906
-4.9620e-05,0.0814062,0.0687187,0.008,-0.271094
-4.9610e-05,0.0818906,0.067,0.0075625,-0.229687
-4.9600e-05,0.0812266,0.0669063,0.00714063,-0.245312
-4.9590e-05,0.0812031,0.0675312,0.00540625,-0.263281
-4.9580e-05,0.0818984,0.0684375,0.00795313,-0.285156
-4.9570e-05,0.0824766,0.06975,0.00734375,-0.20625
-4.9560e-05,0.0833672,0.0712187,0.00657813,-0.265625
-4.9550e-05,0.0838359,0.0689687,0.0055,-0.216406
-4.9540e-05,0.0829531,0.06625,0.00628125,-0.25625
-4.9530e-05,0.0852891,0.068625,0.0059375,-0.288281
-4.9520e-05,0.083625,0.0660938,0.00660938,-0.276562
-4.9510e-05,0.0845625,0.0680625,0.00629688,-0.259375
-4.9500e-05,0.0832734,0.0655625,0.0070625,-0.225781
-4.9490e-05,0.083,0.0697187,0.005625,-0.252344
-4.9480e-05,0.0828359,0.0689063,0.00576563,-0.257031
-4.9470e-05,0.0823203,0.06675,0.007875,-0.300781
-4.9460e-05,0.0819297,0.0655938,0.00560937,-0.267969
-4.9450e-05,0.0822734,0.069125,0.00779688,-0.269531
-4.9440e-05,0.0812812,0.0696563,0.00575,-0.269531
-4.9430e-05,0.0824687,0.0672812,0.00675,-0.236719
-4.9420e-05,0.0822734,0.0693438,0.00692188,-0.210156
-4.9410e-05,0.0834375,0.07,0.0071875,-0.267187
-4.9400e-05,0.0835,0.0683125,0.00710938,-0.253906
-4.9390e-05,0.0830625,0.0683125,0.00715625,-0.2375
-4.9380e-05,0.0829219,0.0692187,0.00682813,-0.282031
-4.9370e-05,0.083,0.0679375,0.00682813,-0.235156
-4.9360e-05,0.0837813,0.0689687,0.006875,-0.240625
-4.9350e-05,0.0823516,0.0694063,0.0080625,-0.300781
-4.9340e-05,0.0819453,0.0691563,0.0065,-0.242969
-4.9330e-05,0.0824922,0.068,0.00678125,-0.251562
-4.9320e-05,0.08225,0.0699375,0.00682813,-0.233594
-4.9310e-05,0.0839766,0.0710312,0.00753125,-0.203125
-4.9300e-05,0.0825313,0.0670625,0.0063125,-0.2
-4.9290e-05,0.0840937,0.069125,0.00648438,-0.25
-4.9280e-05,0.0834375,0.0695312,0.00695313,-0.25
-4.9270e-05,0.0844219,0.0694687,0.00623438,-0.221094
-4.9260e-05,0.0842734,0.0667187,0.00760938,-0.221094
-4.9250e-05,0.0819844,0.0679063,0.00607813,-0.2375
-4.9240e-05,0.0835547,0.0657187,0.00664063,-0.271875
-4.9230e-05,0.0824141,0.0674375,0.00695313,-0.205469
-4.9220e-05,0.08175,0.068625,0.00665625,-0.199219
-4.9210e-05,0.0813203,0.069125,0.00671875,-0.260937
-4.9200e-05,0.0816484,0.0704375,0.00614063,-0.200781
-4.9190e-05,0.0819687,0.0689687,0.00678125,-0.20625
-4.9180e-05,0.0819141,0.0695312,0.00684375,-0.2125
-4.9170e-05,0.0822109,0.0684063,0.00698438,-0.19375
-4.9160e-05,0.0833281,0.0676875,0.00603125,-0.235937
-4.9150e-05,0.0825781,0.067,0.00628125,-0.241406
-4.9140e-05,0.0837344,0.0690938,0.00745313,-0.238281
-4.9130e-05,0.0828594,0.0666875,0.00621875,-0.272656
-4.9120e-05,0.0833047,0.0675625,0.00692188,-0.265625
-4.9110e-05,0.0833906,0.0699063,0.00710938,-0.260156
-4.9100e-05,0.0817891,0.068875,0.0073125,-0.225781
-4.9090e-05,0.0822344,0.0679375,0.00721875,-0.275
-4.9080e-05,0.0801797,0.06775,0.00692188,-0.263281
-4.9070e-05,0.0818984,0.0685625,0.00682813,-0.207812
-4.9060e-05,0.0814609,0.0685625,0.0076875,-0.244531
-4.9050e-05,0.0805312,0.0694063,0.00598438,-0.280469
-4.9040e-05,0.0818203,0.0679687,0.00671875,-0.221094
-4.9030e-05,0.0815312,0.0705312,0.00570313,-0.26875
-4.9020e-05,0.0826328,0.068875,0.0066875,-0.260937
-4.9010e-05,0.0816719,0.0712187,0.00725,-0.242969
-4.9000e-05,0.0826641,0.067625,0.0085,-0.241406
-4.8990e-05,0.0833125,0.0692812,0.00642188,-0.292969
-4.8980e-05,0.0823125,0.0691563,0.00635938,-0.230469
-4.8970e-05,0.0835078,0.0687812,0.00734375,-0.205469
-4.8960e-05,0.0814766,0.0692187,0.00628125,-0.260937
-4.8950e-05,0.0825234,0.06825,0.00645313,-0.216406
-4.8940e-05,0.0830391,0.0688438,0.0053125,-0.214844
-4.8930e-05,0.0819219,0.0684687,0.0070625,-0.210156
-4.8920e-05,0.0833047,0.0690625,0.00614063,-0.265625
-4.8910e-05,0.0835937,0.0665,0.0066875,-0.277344
-4.8900e-05,0.0830234,0.0680625,0.00495313,-0.3
-4.8890e-05,0.0846172,0.0675312,0.00771875,-0.288281
-4.8880e-05,0.0822656,0.0684063,0.00732813,-0.253125
-4.8870e-05,0.0846641,0.0692812,0.00732813,-0.209375
-4.8860e-05,0.0831797,0.065875,0.007125,-0.220312
-4.8850e-05,0.0817891,0.0689687,0.00732813,-0.201562
-4.8840e-05,0.0814141,0.0653437,0.006625,-0.25625
-4.8830e-05,0.081125,0.069875,0.00682813,-0.239062
-4.8820e-05,0.0812578,0.0700625,0.0069375,-0.28125
-4.8810e-05,0.0799062,0.0707812,0.00848438,-0.224219
-4.8800e-05,0.0812812,0.0689687,0.00728125,-0.24375
-4.8790e-05,0.0807109,0.0678125,0.00567188,-0.311719
-4.8780e-05,0.0831484,0.066625,0.00707813,-0.257031
-4.8770e-05,0.0830625,0.0694687,0.00859375,-0.253125
-4.8760e-05,0.0835,0.0711563,0.00740625,-0.2625
-4.8750e-05,0.0835469,0.0676563,0.00725,-0.248437
-4.8740e-05,0.0841328,0.069625,0.00589063,-0.264062
-4.8730e-05,0.0845391,0.0683438,0.00571875,-0.267969
-4.8720e-05,0.0841172,0.06875,0.007125,-0.244531
-4.8710e-05,0.0825391,0.0689375,0.00554688,-0.21875
-4.8700e-05,0.0829687,0.0698125,0.00760938,-0.258594
-4.8690e-05,0.0834609,0.0672812,0.00564063,-0.2375
-4.8680e-05,0.0820156,0.069625,0.00692188,-0.221875
-4.8670e-05,0.0824844,0.0684375,0.00454688,-0.257031
-4.8660e-05,0.0823594,0.069125,0.00542188,-0.257031
-4.8650e-05,0.0832109,0.0699375,0.00564063,-0.278125
-4.8640e-05,0.0826797,0.0696875,0.0070625,-0.220312
-4.8630e-05,0.0832344,0.0678125,0.00510937,-0.310156
-4.8620e-05,0.0828281,0.0673125,0.0065625,-0.257812
-4.8610e-05,0.0823437,0.069375,0.00715625,-0.310937
-4.8600e-05,0.0829531,0.0695,0.00770313,-0.234375
-4.8590e-05,0.0806797,0.0674375,0.00764063,-0.26875
-4.8580e-05,0.0813672,0.0682812,0.00740625,-0.25625
-4.8570e-05,0.0809141,0.0699063,0.00760938,-0.172656
-4.8560e-05,0.0812266,0.0704687,0.00710938,-0.242188
-4.8550e-05,0.0803672,0.0680312,0.00775,-0.213281
-4.8540e-05,0.0813203,0.07,0.00673438,-0.260937
-4.8530e-05,0.0832813,0.0682187,0.00701563,-0.240625
-4.8520e-05,0.08275,0.071375,0.0066875,-0.294531
-4.8510e-05,0.0827969,0.0680625,0.00673438,-0.271094
-4.8500e-05,0.0834609,0.0674063,0.00764063,-0.228906
-4.8490e-05,0.0838828,0.066625,0.00675,-0.229687
-4.8480e-05,0.0835234,0.0690312,0.00707813,-0.216406
-4.8470e-05,0.08325,0.068125,0.00729688,-0.245312
-4.8460e-05,0.0828281,0.0676563,0.0069375,-0.25625
-4.8450e-05,0.0841406,0.0695938,0.00671875,-0.25625
-4.8440e-05,0.0817344,0.0676563,0.00584375,-0.24375
-4.8430e-05,0.0836875,0.068125,0.00660938,-0.257812
-4.8420e-05,0.0815391,0.0659062,0.00590625,-0.217187
-4.8410e-05,0.0820937,0.06975,0.00535937,-0.228125
-4.8400e-05,0.08275,0.067125,0.00695313,-0.251562
-4.8390e-05,0.0817109,0.0690312,0.00564063,-0.257031
-4.8380e-05,0.0827734,0.0695,0.00515625,-0.222656
-4.8370e-05,0.0814922,0.06875,0.00598438,-0.25
-4.8360e-05,0.0827344,0.0698438,0.00653125,-0.275
-4.8350e-05,0.0817344,0.0694375,0.0073125,-0.248437
-4.8340e-05,0.0811641,0.0685625,0.00689063,-0.228906
-4.8330e-05,0.0819844,0.0685938,0.00609375,-0.241406
-4.8320e-05,0.0814922,0.0701875,0.00645313,-0.267187
-4.8310e-05,0.0817187,0.0671875,0.00790625,-0.266406
-4.8300e-05,0.0815,0.0701563,0.00625,-0.20625
-4.8290e-05,0.0812656,0.0694063,0.006375,-0.26875
-4.8280e-05,0.0837109,0.0720312,0.0065,-0.228906
-4.8270e-05,0.0827187,0.06775,0.00673438,-0.3
-4.8260e-05,0.0832656,0.0700938,0.00584375,-0.222656
-4.8250e-05,0.0841641,0.0704063,0.005625,-0.241406
-4.8240e-05,0.0828281,0.0708125,0.0070625,-0.208594
-4.8230e-05,0.0845703,0.0695312,0.00653125,-0.278906
-4.8220e-05,0.0815312,0.0665,0.00740625,-0.275
-4.8210e-05,0.0823984,0.0682187,0.00590625,-0.278906
-4.8200e-05,0.0822656,0.0686563,0.0075,-0.246094
-4.8190e-05,0.0815547,0.0687812,0.007375,-0.246094
-4.8180e-05,0.0822031,0.0686875,0.0061875,-0.221094
-4.8170e-05,0.0803203,0.0682187,0.00585938,-0.214062
-4.8160e-05,0.082125,0.0692812,0.0075,-0.261719
-4.8150e-05,0.0810625,0.0673438,0.00617188,-0.270312
-4.8140e-05,0.0833594,0.0694063,0.0069375,-0.178906
-4.8130e-05,0.0831953,0.0710312,0.00554688,-0.250781
-4.8120e-05,0.0833047,0.0705,0.00573437,-0.196094
-4.8110e-05,0.0840234,0.0657813,0.00807813,-0.222656
-4.8100e-05,0.0837344,0.069875,0.0061875,-0.291406
-4.8090e-05,0.0824453,0.0664062,0.00657813,-0.217187
-4.8080e-05,0.0835156,0.067375,0.00714063,-0.241406
-4.8070e-05,0.0831406,0.0677187,0.00739063,-0.25625
-4.8060e-05,0.08225,0.0674063,0.00654688,-0.236719
-4.8050e-05,0.0825234,0.0670312,0.00804688,-0.292187
-4.8040e-05,0.0816719,0.0676875,0.00729688,-0.25
-4.8030e-05,0.0820391,0.068875,0.00665625,-0.242188
-4.8020e-05,0.0814375,0.07025,0.006875,-0.275
-4.8010e-05,0.0821484,0.0714063,0.00604688,-0.235937
-4.8000e-05,0.0807578,0.0668125,0.00645313,-0.234375
-4.7990e-05,0.0837031,0.0704375,0.00659375,-0.226562
-4.7980e-05,0.0823125,0.0699375,0.00692188,-0.241406
-4.7970e-05,0.0818125,0.0683125,0.00646875,-0.242188
-4.7960e-05,0.081875,0.066875,0.00651563,-0.214062
-4.7950e-05,0.081375,0.0700938,0.0075625,-0.291406
-4.7940e-05,0.0820078,0.0670938,0.0076875,-0.260937
-4.7930e-05,0.0801328,0.0685,0.00746875,-0.219531
-4.7920e-05,0.0812969,0.0681875,0.00695313,-0.213281
-4.7910e-05,0.0811641,0.0680625,0.00670313,-0.253906
-4.7900e-05,0.0820703,0.0687812,0.00603125,-0.264062
-4.7890e-05,0.0828437,0.0695625,0.00689063,-0.283594
-4.7880e-05,0.0817812,0.0691563,0.00582813,-0.207812
-4.7870e-05,0.0837344,0.0678438,0.00579688,-0.253125
-4.7860e-05,0.0833281,0.0705312,0.00626563,-0.20625
-4.7850e-05,0.083375,0.0704063,0.00592188,-0.23125
-4.7840e-05,0.0833672,0.0689375,0.0068125,-0.2125
-4.7830e-05,0.0828281,0.0685312,0.0066875,-0.252344
-4.7820e-05,0.0827734,0.06575,0.00617188,-0.214844
-4.7810e-05,0.0823203,0.0686875,0.00804688,-0.25
-4.7800e-05,0.0806719,0.0685312,0.00689063,-0.247656
-4.7790e-05,0.0813906,0.067375,0.00684375,-0.246094
-4.7780e-05,0.0805078,0.0670625,0.00659375,-0.236719
-4.7770e-05,0.0812266,0.06975,0.00704688,-0.249219
-4.7760e-05,0.0802109,0.065875,0.00507813,-0.271875
-4.7750e-05,0.0802344,0.0673438,0.00621875,-0.255469
-4.7740e-05,0.0825547,0.0679687,0.00620313,-0.229687
-4.7730e-05,0.0800937,0.0682812,0.00557813,-0.233594
-4.7720e-05,0.0823437,0.0679063,0.00720313,-0.261719
-4.7710e-05,0.0799219,0.0680625,0.00765625,-0.246094
-4.7700e-05,0.0819922,0.07175,0.006375,-0.257812
-4.7690e-05,0.0817344,0.0687812,0.00696875,-0.257031
-4.7680e-05,0.0810703,0.0698438,0.00782813,-0.23125
-4.7670e-05,0.0820469,0.0674375,0.00728125,-0.209375
-4.7660e-05,0.0821406,0.0696563,0.00729688,-0.275
-4.7650e-05,0.0829297,0.0683125,0.00559375,-0.236719
-4.7640e-05,0.0834531,0.0694375,0.00635938,-0.282031
-4.7630e-05,0.0834453,0.069875,0.00603125,-0.265625
-4.7620e-05,0.0833203,0.0671563,0.00604688,-0.276562
-4.7610e-05,0.0844063,0.0704375,0.00592188,-0.310937
-4.7600e-05,0.0839609,0.0679063,0.00573437,-0.2875
-4.7590e-05,0.0841172,0.0690312,0.00570313,-0.263281
-4.7580e-05,0.0818047,0.0694063,0.006125,-0.2625
-4.7570e-05,0.082875,0.06675,0.00582813,-0.279687
-4.7560e-05,0.0808906,0.0668125,0.00725,-0.266406
-4.7550e-05,0.0813281,0.06775,0.00625,-0.266406
-4.7540e-05,0.0799687,0.0681563,0.00645313,-0.246875
-4.7530e-05,0.0807578,0.0684375,0.00614063,-0.266406
-4.7520e-05,0.0805781,0.069125,0.00770313,-0.233594
-4.7510e-05,0.0798437,0.0704063,0.00496875,-0.215625
-4.7500e-05,0.0813437,0.0705938,0.00609375,-0.249219
-4.7490e-05,0.0816172,0.0678125,0.00725,-0.266406
-4.7480e-05,0.0823047,0.070125,0.00746875,-0.221094
-4.7470e-05,0.0829375,0.068,0.00773438,-0.290625
-4.7460e-05,0.0827578,0.068875,0.0059375,-0.217969
-4.7450e-05,0.0834297,0.0702187,0.00628125,-0.185156
-4.7440e-05,0.0830781,0.0689687,0.00821875,-0.239062
-4.7430e-05,0.0839844,0.0704063,0.00714063,-0.264844
-4.7420e-05,0.0820625,0.0684687,0.00759375,-0.242188
-4.7410e-05,0.0819922,0.0667812,0.0061875,-0.260156
-4.7400e-05,0.0827422,0.0699375,0.00689063,-0.239062
-4.7390e-05,0.0822266,0.0684687,0.0055625,-0.240625
-4.7380e-05,0.0812969,0.0688125,0.00690625,-0.200781
-4.7370e-05,0.0826563,0.0699375,0.00679688,-0.19375
-4.7360e-05,0.0824766,0.0680938,0.00648438,-0.217187
-4.7350e-05,0.0824922,0.0682187,0.00792188,-0.196094
-4.7340e-05,0.0817656,0.06725,0.00582813,-0.23125
-4.7330e-05,0.0819297,0.0685625,0.00639063,-0.257031
-4.7320e-05,0.08275,0.06575,0.00771875,-0.298437
-4.7310e-05,0.0813047,0.0679375,0.00739063,-0.234375
-4.7300e-05,0.0810625,0.06725,0.00551563,-0.257812
-4.7290e-05,0.0806953,0.0685625,0.00753125,-0.307812
-4.7280e-05,0.0817891,0.0695625,0.00598438,-0.251562
-4.7270e-05,0.0803594,0.0690312,0.00639063,-0.226562
-4.7260e-05,0.0817656,0.0710938,0.00690625,-0.202344
-4.7250e-05,0.0812656,0.0695625,0.0058125,-0.282812
-4.7240e-05,0.0826484,0.068625,0.00698438,-0.274219
-4.7230e-05,0.0822578,0.0668438,0.00690625,-0.246094
-4.7220e-05,0.0819766,0.0670312,0.00654688,-0.246094
-4.7210e-05,0.0824844,0.0685312,0.00510937,-0.245312
-4.7200e-05,0.0829219,0.066875,0.00673438,-0.257812
-4.7190e-05,0.0815391,0.0686563,0.00740625,-0.246094
-4.7180e-05,0.0822031,0.0669687,0.00823438,-0.280469
-4.7170e-05,0.0801094,0.06925,0.00701563,-0.275
-4.7160e-05,0.0818047,0.069125,0.0074375,-0.26875
-4.7150e-05,0.0809219,0.0691875,0.00778125,-0.311719
-4.7140e-05,0.0801953,0.0697812,0.0064375,-0.2125
-4.7130e-05,0.0799609,0.0682187,0.0065,-0.259375
-4.7120e-05,0.0803594,0.06775,0.00584375,-0.228125
-4.7110e-05,0.0823516,0.0680938,0.00782813,-0.204687
-4.7100e-05,0.0815625,0.0673438,0.00678125,-0.252344
-4.7090e-05,0.0811719,0.0685625,0.00675,-0.263281
-4.7080e-05,0.0821563,0.0699375,0.00673438,-0.200781
-4.7070e-05,0.0817734,0.0680938,0.00648438,-0.239062
-4.7060e-05,0.0829063,0.0676875,0.00746875,-0.242188
-4.7050e-05,0.0818047,0.0671875,0.00589063,-0.214844
-4.7040e-05,0.0815078,0.0684375,0.0066875,-0.248437
-4.7030e-05,0.0835391,0.0687187,0.00617188,-0.249219
-4.7020e-05,0.0815391,0.0675938,0.00682813,-0.205469
-4.7010e-05,0.0828672,0.0680938,0.00715625,-0.228125
-4.7000e-05,0.0813437,0.0693125,0.00476563,-0.253125
-4.6990e-05,0.0833203,0.0679063,0.00678125,-0.2
-4.6980e-05,0.0821172,0.0673125,0.00685938,-0.304688
-4.6970e-05,0.0821406,0.06975,0.00671875,-0.2125
-4.6960e-05,0.0829687,0.0681875,0.0068125,-0.259375
-4.6950e-05,0.0816953,0.0683125,0.00645313,-0.210156
-4.6940e-05,0.0817344,0.066375,0.00751563,-0.232031
-4.6930e-05,0.0812734,0.0673125,0.00764063,-0.238281
-4.6920e-05,0.079875,0.0670938,0.00632813,-0.267187
-4.6910e-05,0.0813672,0.0687812,0.00792188,-0.267969
-4.6900e-05,0.0805,0.0697812,0.00696875,-0.266406
-4.6890e-05,0.0801484,0.069875,0.00707813,-0.241406
-4.6880e-05,0.0806328,0.068625,0.00709375,-0.217187
-4.6870e-05,0.0803828,0.067125,0.00648438,-0.282031
-4.6860e-05,0.0823672,0.0683438,0.00714063,-0.233594
-4.6850e-05,0.0812656,0.0676563,0.00782813,-0.301562
-4.6840e-05,0.0823828,0.0687187,0.00707813,-0.235156
-4.6830e-05,0.0833594,0.0674375,0.0070625,-0.257812
-4.6820e-05,0.0837422,0.0690625,0.00615625,-0.214062
-4.6810e-05,0.0843281,0.0677812,0.00673438,-0.235937
-4.6800e-05,0.0823047,0.0681875,0.00759375,-0.219531
-4.6790e-05,0.0837422,0.0694687,0.00684375,-0.284375
-4.6780e-05,0.0837813,0.0681875,0.006125,-0.282031
-4.6770e-05,0.0828984,0.0688125,0.00815625,-0.270312
-4.6760e-05,0.0819609,0.0684063,0.00646875,-0.241406
-4.6750e-05,0.0812266,0.0701563,0.00748438,-0.296875
-4.6740e-05,0.0819922,0.0663125,0.00653125,-0.238281
-4.6730e-05,0.0805625,0.0680938,0.00710938,-0.254687
-4.6720e-05,0.0815,0.0694063,0.00673438,-0.241406
-4.6710e-05,0.0792266,0.0670938,0.00642188,-0.207812
-4.6700e-05,0.0808047,0.0692187,0.00575,-0.25
-4.6690e-05,0.08075,0.0681875,0.0075625,-0.280469
-4.6680e-05,0.0799141,0.0692812,0.00715625,-0.236719
-4.6670e-05,0.0803125,0.066875,0.0070625,-0.274219
-4.6660e-05,0.0799609,0.067625,0.00717188,-0.290625
-4.6650e-05,0.0798594,0.0696875,0.00684375,-0.260937
-4.6640e-05,0.0803281,0.0693438,0.0075625,-0.234375
-4.6630e-05,0.0803437,0.0701563,0.00734375,-0.269531
-4.6620e-05,0.0812656,0.0689375,0.007375,-0.245312
-4.6610e-05,0.0821641,0.0693438,0.00635938,-0.247656
-4.6600e-05,0.0814375,0.0692187,0.0079375,-0.260937
-4.6590e-05,0.0828594,0.0676875,0.00534375,-0.207812
-4.6580e-05,0.0817266,0.0673125,0.00617188,-0.2
-4.6570e-05,0.083625,0.0692187,0.00726563,-0.273438
-4.6560e-05,0.0822734,0.0668125,0.00603125,-0.242969
-4.6550e-05,0.0825078,0.0703125,0.00664063,-0.202344
-4.6540e-05,0.0810781,0.0664062,0.00726563,-0.283594
-4.6530e-05,0.0813906,0.0684375,0.00648438,-0.205469
-4.6520e-05,0.0819609,0.0673125,0.00735938,-0.223437
-4.6510e-05,0.0800312,0.0651875,0.00609375,-0.210156
-4.6500e-05,0.0807812,0.0672812,0.0060625,-0.261719
-4.6490e-05,0.0806641,0.0670625,0.00589063,-0.217187
-4.6480e-05,0.0804062,0.0684687,0.00615625,-0.185156
-4.6470e-05,0.0810078,0.0695625,0.00595313,-0.247656
-4.6460e-05,0.080125,0.0681875,0.0048125,-0.263281
-4.6450e-05,0.0816953,0.0685938,0.00584375,-0.271875
-4.6440e-05,0.0804219,0.0675625,0.00629688,-0.198437
-4.6430e-05,0.0808359,0.0683125,0.0066875,-0.266406
-4.6420e-05,0.0801797,0.0686875,0.006125,-0.278125
-4.6410e-05,0.0813359,0.0694687,0.00620313,-0.271094
-4.6400e-05,0.0809531,0.0691563,0.0075,-0.220312
-4.6390e-05,0.0811562,0.0675625,0.00901563,-0.273438
-4.6380e-05,0.0799922,0.0676563,0.00792188,-0.253906
-4.6370e-05,0.0826719,0.0685938,0.00678125,-0.195312
-4.6360e-05,0.0812422,0.0712812,0.00740625,-0.26875
-4.6350e-05,0.0831953,0.0698438,0.00629688,-0.240625
-4.6340e-05,0.0820703,0.068875,0.0066875,-0.257031
-4.6330e-05,0.0827656,0.068625,0.00667188,-0.238281
-4.6320e-05,0.0829922,0.0673125,0.0071875,-0.246094
-4.6310e-05,0.0816641,0.0668438,0.00701563,-0.2
-4.6300e-05,0.0834766,0.0675625,0.00614063,-0.279687
-4.6290e-05,0.0801406,0.0679687,0.00648438,-0.228906
-4.6280e-05,0.0820391,0.0675,0.00653125,-0.245312
-4.6270e-05,0.0803203,0.0658125,0.00795313,-0.241406
-4.6260e-05,0.0808203,0.07025,0.00634375,-0.246094
-4.6250e-05,0.0797344,0.0659062,0.0065625,-0.196875
-4.6240e-05,0.0804141,0.0696875,0.00548437,-0.214062
