org.zhangbai.display/src/org/zhangbai/display/readfile/20171202_19_56_45/tek0004.csv

Model,DPO4104B
Firmware Version,1.38

Waveform Type,Analog,Analog,Analog,Analog
Point Format,ENV,,,
Horizontal Units,s,,,
Horizontal Scale,1e-05,,,
Horizontal Delay,0,0,0,0
Sample Interval,1e-08,,,
Record Length,10000,,,
Gating,0.0% to 100.0%,0.0% to 100.0%,0.0% to 100.0%,0.0% to 100.0%
Probe Attenuation,1,1,1,1
Vertical Units,V,V,V,V
Vertical Offset,0,0,0,0
Vertical Scale,0.05,0.2,0.1,5
Vertical Position,-3.08,-1.58,-0.7,-0.96
Label,,,,
TIME,CH1,CH2,CH3,CH4
-5.0000e-05,0.086625,0.074625,0.0076875,-0.273438
-4.9990e-05,0.0856016,0.0719063,0.00653125,-0.208594
-4.9980e-05,0.0860312,0.0700625,0.00453125,-0.246094
-4.9970e-05,0.0873516,0.071125,0.00632813,-0.240625
-4.9960e-05,0.0860781,0.0700312,0.00573437,-0.141406
-4.9950e-05,0.08725,0.07025,0.00717188,-0.21875
-4.9940e-05,0.0850391,0.0707187,0.00673438,-0.214844
-4.9930e-05,0.0845313,0.0690312,0.00678125,-0.233594
-4.9920e-05,0.0844531,0.0715938,0.00576563,-0.238281
-4.9910e-05,0.0842891,0.0712187,0.00548437,-0.1875
-4.9900e-05,0.0828516,0.0695938,0.00685938,-0.200781
-4.9890e-05,0.0833203,0.07025,0.00551563,-0.141406
-4.9880e-05,0.0834219,0.069875,0.00720313,-0.264844
-4.9870e-05,0.0847578,0.0730937,0.00667188,-0.1625
-4.9860e-05,0.0841406,0.0719687,0.0069375,-0.208594
-4.9850e-05,0.0846641,0.0715312,0.00796875,-0.228906
-4.9840e-05,0.0850625,0.0699063,0.00796875,-0.210156
-4.9830e-05,0.0856484,0.07025,0.00664063,-0.252344
-4.9820e-05,0.0862344,0.0735625,0.00714063,-0.203906
-4.9810e-05,0.0851172,0.07025,0.00595313,-0.221094
-4.9800e-05,0.0866406,0.073875,0.00682813,-0.275
-4.9790e-05,0.0848594,0.0700625,0.00610938,-0.190625
-4.9780e-05,0.0853359,0.0720937,0.0065625,-0.221875
-4.9770e-05,0.0849687,0.072375,0.00760938,-0.228125
-4.9760e-05,0.0848047,0.0725937,0.00575,-0.210156
-4.9750e-05,0.0857344,0.0712812,0.0070625,-0.221094
-4.9740e-05,0.085125,0.0714687,0.00729688,-0.25625
-4.9730e-05,0.0858984,0.0710312,0.00642188,-0.232812
-4.9720e-05,0.0849844,0.0733125,0.00715625,-0.202344
-4.9710e-05,0.085875,0.07375,0.007,-0.188281
-4.9700e-05,0.0862109,0.0741563,0.0073125,-0.207031
-4.9690e-05,0.0854453,0.0710312,0.00642188,-0.255469
-4.9680e-05,0.0864375,0.0725937,0.00501563,-0.240625
-4.9670e-05,0.0860703,0.072375,0.00578125,-0.225781
-4.9660e-05,0.0858437,0.0722187,0.005875,-0.291406
-4.9650e-05,0.0859609,0.0685312,0.00634375,-0.225
-4.9640e-05,0.0850781,0.0684687,0.00584375,-0.224219
-4.9630e-05,0.0857422,0.0713125,0.00573437,-0.207031
-4.9620e-05,0.0856016,0.0722187,0.00703125,-0.235937
-4.9610e-05,0.0845391,0.0718438,0.00651563,-0.223437
-4.9600e-05,0.0847187,0.07125,0.00739063,-0.260156
-4.9590e-05,0.0843203,0.0692812,0.00609375,-0.1375
-4.9580e-05,0.0852734,0.0714063,0.0059375,-0.183594
-4.9570e-05,0.0845625,0.071375,0.00673438,-0.172656
-4.9560e-05,0.0846797,0.0697812,0.00629688,-0.189844
-4.9550e-05,0.0835078,0.0673125,0.007,-0.271094
-4.9540e-05,0.0833437,0.0715312,0.00689063,-0.185156
-4.9530e-05,0.084375,0.0698125,0.00820313,-0.172656
-4.9520e-05,0.0827187,0.07025,0.00684375,-0.207031
-4.9510e-05,0.0835156,0.071625,0.00675,-0.271875
-4.9500e-05,0.0840859,0.0694687,0.00564063,-0.224219
-4.9490e-05,0.0845859,0.0712812,0.0055,-0.211719
-4.9480e-05,0.0856016,0.0735312,0.00560937,-0.192969
-4.9470e-05,0.0855313,0.0744688,0.00548437,-0.247656
-4.9460e-05,0.0862891,0.0700625,0.00582813,-0.203906
-4.9450e-05,0.0871875,0.0723125,0.00639063,-0.235156
-4.9440e-05,0.0867578,0.0727812,0.00732813,-0.233594
-4.9430e-05,0.0868984,0.0719687,0.00548437,-0.249219
-4.9420e-05,0.0869766,0.0704063,0.00676563,-0.264062
-4.9410e-05,0.0860547,0.0727187,0.006125,-0.248437
-4.9400e-05,0.0859375,0.0715938,0.00759375,-0.224219
-4.9390e-05,0.0839375,0.0728437,0.00551563,-0.204687
-4.9380e-05,0.0852422,0.0716875,0.005875,-0.242969
-4.9370e-05,0.0841094,0.0721563,0.00617188,-0.165625
-4.9360e-05,0.0857031,0.071,0.00585938,-0.246875
-4.9350e-05,0.083875,0.0712812,0.00785938,-0.2625
-4.9340e-05,0.0843125,0.07325,0.00567188,-0.19375
-4.9330e-05,0.0846484,0.0713125,0.0065,-0.178906
-4.9320e-05,0.0840234,0.0724375,0.00682813,-0.258594
-4.9310e-05,0.0855781,0.07025,0.00617188,-0.228125
-4.9300e-05,0.0842266,0.0724375,0.00748438,-0.246094
-4.9290e-05,0.0852813,0.0703125,0.00710938,-0.201562
-4.9280e-05,0.0843906,0.0712187,0.00707813,-0.264062
-4.9270e-05,0.0835859,0.0722812,0.00632813,-0.211719
-4.9260e-05,0.0846328,0.070875,0.0068125,-0.203906
-4.9250e-05,0.0845469,0.0719063,0.00709375,-0.196094
-4.9240e-05,0.0853203,0.0718125,0.0064375,-0.175781
-4.9230e-05,0.0849063,0.0724375,0.00785938,-0.186719
-4.9220e-05,0.0853906,0.0699375,0.00732813,-0.205469
-4.9210e-05,0.086,0.0731875,0.00778125,-0.182812
-4.9200e-05,0.0860937,0.0729063,0.00759375,-0.202344
-4.9190e-05,0.0875391,0.0723437,0.00670313,-0.198437
-4.9180e-05,0.0875312,0.0719687,0.00675,-0.179688
-4.9170e-05,0.087,0.0716563,0.006125,-0.210156
-4.9160e-05,0.0876641,0.0719063,0.00659375,-0.240625
-4.9150e-05,0.0870469,0.0710625,0.00682813,-0.194531
-4.9140e-05,0.0860547,0.0706875,0.00634375,-0.235156
-4.9130e-05,0.0855703,0.0712187,0.00660938,-0.302344
-4.9120e-05,0.0862031,0.0724687,0.00567188,-0.246875
-4.9110e-05,0.0858516,0.0694063,0.00589063,-0.179688
-4.9100e-05,0.0843359,0.072375,0.00610938,-0.182812
-4.9090e-05,0.0850781,0.06925,0.00565625,-0.250781
-4.9080e-05,0.0843672,0.0736563,0.00604688,-0.214844
-4.9070e-05,0.0851953,0.0739063,0.00671875,-0.176562
-4.9060e-05,0.0838281,0.0690938,0.0075625,-0.246875
-4.9050e-05,0.0847109,0.0713125,0.00651563,-0.266406
-4.9040e-05,0.0849844,0.0707812,0.00759375,-0.235156
-4.9030e-05,0.0839297,0.0698438,0.00565625,-0.183594
-4.9020e-05,0.0846719,0.0699063,0.00714063,-0.207812
-4.9010e-05,0.0846016,0.0703125,0.0071875,-0.173437
-4.9000e-05,0.0842266,0.0734375,0.00651563,-0.239844
-4.8990e-05,0.0850703,0.070375,0.00740625,-0.228125
-4.8980e-05,0.0848203,0.0714687,0.00695313,-0.247656
-4.8970e-05,0.0855391,0.0707187,0.00725,-0.165625
-4.8960e-05,0.0860312,0.0723125,0.00764063,-0.253125
-4.8950e-05,0.0865234,0.0736563,0.00665625,-0.179688
-4.8940e-05,0.0871172,0.0736563,0.00540625,-0.232031
-4.8930e-05,0.0846875,0.0705938,0.00632813,-0.241406
-4.8920e-05,0.0866406,0.0702187,0.00690625,-0.235156
-4.8910e-05,0.0856328,0.070125,0.00715625,-0.215625
-4.8900e-05,0.0858047,0.0720312,0.0056875,-0.199219
-4.8890e-05,0.0861328,0.0716563,0.00642188,-0.175
-4.8880e-05,0.0838672,0.0710938,0.00621875,-0.211719
-4.8870e-05,0.0859141,0.07275,0.00654688,-0.286719
-4.8860e-05,0.0849687,0.0722812,0.006,-0.1875
-4.8850e-05,0.0854844,0.0709063,0.00695313,-0.223437
-4.8840e-05,0.0856094,0.0727187,0.00625,-0.209375
-4.8830e-05,0.0853281,0.0736875,0.00678125,-0.179688
-4.8820e-05,0.0864297,0.0735,0.0068125,-0.219531
-4.8810e-05,0.085125,0.0728125,0.00639063,-0.178906
-4.8800e-05,0.0859375,0.0710938,0.0058125,-0.235156
-4.8790e-05,0.0849063,0.0713125,0.0074375,-0.2
-4.8780e-05,0.0847891,0.072875,0.0078125,-0.228125
-4.8770e-05,0.0845703,0.0709375,0.00753125,-0.184375
-4.8760e-05,0.0837813,0.0700938,0.00776563,-0.225781
-4.8750e-05,0.0837969,0.0723125,0.00795313,-0.191406
-4.8740e-05,0.0839766,0.0714375,0.00832813,-0.245312
-4.8730e-05,0.0835859,0.0713125,0.007125,-0.182031
-4.8720e-05,0.0847031,0.0725312,0.00714063,-0.167187
-4.8710e-05,0.0841563,0.0705938,0.00634375,-0.2375
-4.8700e-05,0.0850234,0.0701875,0.00782813,-0.236719
-4.8690e-05,0.0849922,0.0695312,0.00776563,-0.23125
-4.8680e-05,0.085375,0.0703438,0.0064375,-0.258594
-4.8670e-05,0.0860391,0.0709375,0.00570313,-0.23125
-4.8660e-05,0.0858672,0.0735625,0.00607813,-0.208594
-4.8650e-05,0.0859375,0.0747188,0.00601563,-0.184375
-4.8640e-05,0.0850078,0.0702187,0.00640625,-0.25625
-4.8630e-05,0.0861875,0.0709063,0.00610938,-0.192969
-4.8620e-05,0.0855156,0.0721563,0.00834375,-0.199219
-4.8610e-05,0.0853437,0.07225,0.00751563,-0.239062
-4.8600e-05,0.0865078,0.0730312,0.00615625,-0.267969
-4.8590e-05,0.0853594,0.0724375,0.006875,-0.228906
-4.8580e-05,0.0867891,0.0734687,0.0066875,-0.207031
-4.8570e-05,0.0865625,0.0709375,0.00707813,-0.1625
-4.8560e-05,0.0862422,0.0739687,0.006125,-0.175781
-4.8550e-05,0.0859375,0.071,0.00753125,-0.225781
-4.8540e-05,0.087,0.0700312,0.00723438,-0.189062
-4.8530e-05,0.0859844,0.0716875,0.00735938,-0.195312
-4.8520e-05,0.0855313,0.0708438,0.0071875,-0.204687
-4.8510e-05,0.0845625,0.070625,0.00821875,-0.210938
-4.8500e-05,0.0848594,0.0725,0.00725,-0.265625
-4.8490e-05,0.0844687,0.0708125,0.00670313,-0.176562
-4.8480e-05,0.0837734,0.0722187,0.00615625,-0.207812
-4.8470e-05,0.084,0.0711563,0.00734375,-0.175
-4.8460e-05,0.0840625,0.0726563,0.00592188,-0.191406
-4.8450e-05,0.0850313,0.0723437,0.00678125,-0.227344
-4.8440e-05,0.0839531,0.0715938,0.00714063,-0.220312
-4.8430e-05,0.0857813,0.071125,0.00751563,-0.198437
-4.8420e-05,0.0846875,0.0706875,0.0073125,-0.204687
-4.8410e-05,0.0852422,0.0723125,0.00492188,-0.203906
-4.8400e-05,0.0852422,0.07075,0.00673438,-0.253125
-4.8390e-05,0.0853203,0.070125,0.00582813,-0.178906
-4.8380e-05,0.0853516,0.0710938,0.00804688,-0.161719
-4.8370e-05,0.0856484,0.0705938,0.00689063,-0.185937
-4.8360e-05,0.086625,0.0735312,0.00684375,-0.194531
-4.8350e-05,0.0857891,0.0710625,0.00684375,-0.210938
-4.8340e-05,0.0864531,0.07275,0.00584375,-0.266406
-4.8330e-05,0.0870234,0.0734687,0.00623438,-0.209375
-4.8320e-05,0.0869062,0.071375,0.00603125,-0.174219
-4.8310e-05,0.0872578,0.071875,0.00707813,-0.247656
-4.8300e-05,0.0866328,0.072,0.0070625,-0.217969
-4.8290e-05,0.0867422,0.0722187,0.0064375,-0.222656
-4.8280e-05,0.0862031,0.0719063,0.00654688,-0.185156
-4.8270e-05,0.0844141,0.0693438,0.00670313,-0.210938
-4.8260e-05,0.0841016,0.0702187,0.00726563,-0.289062
-4.8250e-05,0.083375,0.0727187,0.0070625,-0.210938
-4.8240e-05,0.0826563,0.0745625,0.00646875,-0.220312
-4.8230e-05,0.0828516,0.072125,0.0053125,-0.249219
-4.8220e-05,0.0828437,0.0719687,0.0061875,-0.241406
-4.8210e-05,0.0837734,0.0733437,0.00676563,-0.215625
-4.8200e-05,0.0837578,0.0726875,0.00796875,-0.197656
-4.8190e-05,0.0848828,0.0740625,0.0051875,-0.198437
-4.8180e-05,0.0852266,0.0709687,0.008125,-0.185937
-4.8170e-05,0.0856797,0.0718125,0.00646875,-0.270312
-4.8160e-05,0.0870625,0.0697812,0.007375,-0.205469
-4.8150e-05,0.0855469,0.071375,0.00715625,-0.242188
-4.8140e-05,0.0861797,0.0729375,0.00715625,-0.207812
-4.8130e-05,0.0858203,0.071125,0.00646875,-0.226562
-4.8120e-05,0.0851484,0.0719063,0.00720313,-0.225
-4.8110e-05,0.0851094,0.0717812,0.0069375,-0.284375
-4.8100e-05,0.0848828,0.0720937,0.00660938,-0.192969
-4.8090e-05,0.0852109,0.0724375,0.006375,-0.20625
-4.8080e-05,0.0861562,0.0709063,0.00665625,-0.238281
-4.8070e-05,0.0849141,0.0716875,0.00698438,-0.207031
-4.8060e-05,0.0858437,0.0704375,0.00626563,-0.217187
-4.8050e-05,0.0854063,0.071625,0.0065,-0.208594
-4.8040e-05,0.0863203,0.0717187,0.0060625,-0.157031
-4.8030e-05,0.0860156,0.0705625,0.00726563,-0.259375
-4.8020e-05,0.0855156,0.0705625,0.00507813,-0.226562
-4.8010e-05,0.0861328,0.07125,0.00604688,-0.192187
-4.8000e-05,0.0845234,0.0715312,0.00551563,-0.217187
-4.7990e-05,0.0852734,0.0705625,0.00684375,-0.223437
-4.7980e-05,0.0841328,0.07125,0.0065,-0.2125
-4.7970e-05,0.0839609,0.0729687,0.00665625,-0.196094
-4.7960e-05,0.0850078,0.0715,0.0066875,-0.182031
-4.7950e-05,0.0841719,0.0702812,0.00735938,-0.240625
-4.7940e-05,0.0857344,0.0716875,0.00721875,-0.21875
-4.7930e-05,0.0849844,0.0701563,0.0064375,-0.220312
-4.7920e-05,0.086,0.0725937,0.00665625,-0.222656
-4.7910e-05,0.0851094,0.06975,0.00795313,-0.21875
-4.7900e-05,0.0861797,0.071375,0.00876563,-0.252344
-4.7890e-05,0.0852813,0.0720625,0.007,-0.239844
-4.7880e-05,0.0849766,0.0684375,0.00567188,-0.2125
-4.7870e-05,0.0860859,0.0721875,0.0065625,-0.210938
-4.7860e-05,0.0845859,0.0719375,0.00692188,-0.1875
-4.7850e-05,0.0851328,0.0736563,0.00728125,-0.227344
-4.7840e-05,0.0849063,0.0703125,0.006,-0.215625
-4.7830e-05,0.0847031,0.0725625,0.00628125,-0.214062
-4.7820e-05,0.0851875,0.0709375,0.00771875,-0.220312
-4.7810e-05,0.0857578,0.0729375,0.00567188,-0.242969
-4.7800e-05,0.0854531,0.0709063,0.00520313,-0.184375
-4.7790e-05,0.0867656,0.0722187,0.00673438,-0.202344
-4.7780e-05,0.0855625,0.070875,0.00646875,-0.177344
-4.7770e-05,0.0858672,0.0722187,0.00640625,-0.255469
-4.7760e-05,0.0858672,0.072,0.00629688,-0.200781
-4.7750e-05,0.0853828,0.0715312,0.00659375,-0.26875
-4.7740e-05,0.0860312,0.0695938,0.00639063,-0.202344
-4.7730e-05,0.0851172,0.0719063,0.00714063,-0.214062
-4.7720e-05,0.08575,0.0713438,0.00685938,-0.146875
-4.7710e-05,0.0838281,0.0696875,0.00709375,-0.196094
-4.7700e-05,0.0852891,0.0723125,0.00678125,-0.217969
-4.7690e-05,0.0856641,0.0735,0.00589063,-0.178125
-4.7680e-05,0.0846094,0.070875,0.00570313,-0.159375
-4.7670e-05,0.0856094,0.0709687,0.0065,-0.188281
-4.7660e-05,0.0849297,0.0715625,0.00671875,-0.195312
-4.7650e-05,0.0853437,0.0715938,0.00754688,-0.207031
-4.7640e-05,0.0849531,0.0705312,0.00665625,-0.259375
-4.7630e-05,0.0851094,0.0713438,0.00689063,-0.195312
-4.7620e-05,0.0842734,0.0710625,0.00753125,-0.204687
-4.7610e-05,0.084125,0.072625,0.006,-0.227344
-4.7600e-05,0.0842109,0.0706875,0.0074375,-0.203125
-4.7590e-05,0.0834297,0.0724687,0.00604688,-0.271094
-4.7580e-05,0.0840078,0.0718438,0.00717188,-0.196875
-4.7570e-05,0.0842109,0.0719687,0.00623438,-0.220312
-4.7560e-05,0.0845937,0.0694687,0.00679688,-0.191406
-4.7550e-05,0.0855391,0.07275,0.00803125,-0.203906
-4.7540e-05,0.0857891,0.0735,0.00554688,-0.192969
-4.7530e-05,0.0860156,0.0715312,0.00634375,-0.207812
-4.7520e-05,0.0876797,0.0698438,0.00723438,-0.238281
-4.7510e-05,0.0859609,0.0718125,0.00609375,-0.207812
-4.7500e-05,0.0873203,0.0704375,0.0068125,-0.189844
-4.7490e-05,0.0860781,0.068875,0.00710938,-0.197656
-4.7480e-05,0.0860859,0.0710938,0.00709375,-0.184375
-4.7470e-05,0.0848594,0.0715,0.0079375,-0.258594
-4.7460e-05,0.0848281,0.073375,0.0074375,-0.266406
-4.7450e-05,0.0853359,0.0697187,0.00659375,-0.240625
-4.7440e-05,0.0840937,0.0701563,0.00635938,-0.128125
-4.7430e-05,0.0844141,0.0725625,0.0064375,-0.28125
-4.7420e-05,0.0838828,0.0705625,0.00690625,-0.221875
-4.7410e-05,0.0848516,0.0739375,0.00771875,-0.261719
-4.7400e-05,0.0841641,0.0680312,0.007,-0.160937
-4.7390e-05,0.0844063,0.070875,0.0076875,-0.203125
-4.7380e-05,0.0846563,0.0711563,0.0063125,-0.271875
-4.7370e-05,0.0841406,0.0700938,0.00684375,-0.251562
-4.7360e-05,0.0841953,0.0684375,0.0085,-0.217187
-4.7350e-05,0.0840781,0.070125,0.00625,-0.197656
-4.7340e-05,0.0848359,0.0708438,0.0069375,-0.252344
-4.7330e-05,0.0848984,0.0724063,0.00675,-0.194531
-4.7320e-05,0.0849531,0.0720625,0.00675,-0.210156
-4.7310e-05,0.0853125,0.0721563,0.00725,-0.259375
-4.7300e-05,0.0855313,0.072875,0.00625,-0.154687
-4.7290e-05,0.0859297,0.0720625,0.00617188,-0.228125
-4.7280e-05,0.08675,0.0723125,0.00725,-0.239062
-4.7270e-05,0.0862109,0.071,0.00582813,-0.246875
-4.7260e-05,0.0861328,0.0718438,0.00614063,-0.198437
-4.7250e-05,0.086,0.0683125,0.00660938,-0.1875
-4.7240e-05,0.0856641,0.07325,0.00615625,-0.2
-4.7230e-05,0.0856484,0.0685625,0.00676563,-0.203906
-4.7220e-05,0.0835859,0.0715938,0.008,-0.228125
-4.7210e-05,0.085375,0.0727187,0.00651563,-0.211719
-4.7200e-05,0.0847109,0.0722187,0.006625,-0.258594
-4.7190e-05,0.0848047,0.07175,0.00579688,-0.207031
-4.7180e-05,0.0844219,0.0690625,0.00689063,-0.232812
-4.7170e-05,0.0851172,0.0711875,0.00648438,-0.195312
-4.7160e-05,0.0841875,0.0689063,0.0064375,-0.225781
-4.7150e-05,0.0849844,0.0706563,0.00639063,-0.214062
-4.7140e-05,0.0854687,0.0719687,0.00692188,-0.203125
-4.7130e-05,0.0841875,0.074,0.00585938,-0.196875
-4.7120e-05,0.0846953,0.0708438,0.00703125,-0.267187
-4.7110e-05,0.084625,0.0712812,0.00748438,-0.159375
-4.7100e-05,0.0839531,0.0708125,0.00801563,-0.242969
-4.7090e-05,0.0840078,0.0690938,0.00664063,-0.195312
-4.7080e-05,0.0849687,0.071875,0.00551563,-0.175781
-4.7070e-05,0.0837813,0.0710625,0.00610938,-0.233594
-4.7060e-05,0.0854766,0.0715625,0.00773438,-0.253125
-4.7050e-05,0.0846875,0.0704063,0.00660938,-0.192187
-4.7040e-05,0.0855703,0.07275,0.0061875,-0.230469
-4.7030e-05,0.0866562,0.069875,0.00679688,-0.1875
-4.7020e-05,0.0861719,0.0721875,0.00534375,-0.175781
-4.7010e-05,0.0868281,0.0713125,0.0060625,-0.230469
-4.7000e-05,0.0857891,0.0710625,0.00521875,-0.185156
-4.6990e-05,0.0862109,0.0719687,0.00598438,-0.209375
-4.6980e-05,0.084875,0.0705625,0.00653125,-0.201562
-4.6970e-05,0.0859297,0.0711875,0.00684375,-0.269531
-4.6960e-05,0.0846172,0.0718438,0.00695313,-0.239062
-4.6950e-05,0.0847969,0.0700312,0.00657813,-0.210938
-4.6940e-05,0.0852266,0.0710625,0.006875,-0.210938
-4.6930e-05,0.0844922,0.0716563,0.00815625,-0.207031
-4.6920e-05,0.0844844,0.0725625,0.00692188,-0.220312
-4.6910e-05,0.0854531,0.0720312,0.006875,-0.260156
-4.6900e-05,0.0865234,0.07225,0.00609375,-0.234375
-4.6890e-05,0.0857109,0.0726875,0.00740625,-0.205469
-4.6880e-05,0.0863516,0.0723125,0.00609375,-0.250781
-4.6870e-05,0.0854609,0.0712812,0.00851563,-0.20625
-4.6860e-05,0.0864844,0.0689063,0.00703125,-0.190625
-4.6850e-05,0.0851484,0.071375,0.00776563,-0.214062
-4.6840e-05,0.0862109,0.0718438,0.00625,-0.241406
-4.6830e-05,0.0840391,0.0709375,0.0065625,-0.18125
-4.6820e-05,0.0849063,0.0741875,0.00776563,-0.210156
-4.6810e-05,0.0850859,0.0710938,0.00559375,-0.155469
-4.6800e-05,0.0839531,0.07,0.00770313,-0.190625
-4.6790e-05,0.0851797,0.0730312,0.00634375,-0.217187
-4.6780e-05,0.0835078,0.068625,0.00689063,-0.257812
-4.6770e-05,0.0856953,0.0729687,0.00603125,-0.232031
-4.6760e-05,0.0851328,0.072375,0.00746875,-0.288281
-4.6750e-05,0.0855859,0.0717187,0.00579688,-0.221875
-4.6740e-05,0.0853437,0.0710312,0.00728125,-0.213281
-4.6730e-05,0.0853906,0.07225,0.0063125,-0.210156
-4.6720e-05,0.0851328,0.0705938,0.0058125,-0.192187
-4.6710e-05,0.0853359,0.0732187,0.00604688,-0.2125
-4.6700e-05,0.0855703,0.0735,0.00667188,-0.235156
-4.6690e-05,0.0848828,0.0703125,0.006625,-0.189062
-4.6680e-05,0.0860156,0.0704063,0.00610938,-0.196875
-4.6670e-05,0.0854922,0.07075,0.00651563,-0.229687
-4.6660e-05,0.0864844,0.071875,0.00671875,-0.222656
-4.6650e-05,0.0864844,0.0719063,0.00535937,-0.1875
-4.6640e-05,0.0864531,0.0718125,0.00734375,-0.216406
-4.6630e-05,0.0861328,0.0701563,0.007,-0.182031
-4.6620e-05,0.0872109,0.069125,0.007125,-0.165625
-4.6610e-05,0.0857109,0.069875,0.00685938,-0.221875
-4.6600e-05,0.0855937,0.0716875,0.00771875,-0.182031
-4.6590e-05,0.0846016,0.0699375,0.00751563,-0.200781
-4.6580e-05,0.0838984,0.0707187,0.00751563,-0.244531
-4.6570e-05,0.0843359,0.0723437,0.00915625,-0.250781
-4.6560e-05,0.0830078,0.0720937,0.00689063,-0.202344
-4.6550e-05,0.0852422,0.0700938,0.00584375,-0.211719
-4.6540e-05,0.0829922,0.0719063,0.00529688,-0.248437
-4.6530e-05,0.0856328,0.073375,0.00545313,-0.261719
-4.6520e-05,0.0842578,0.071625,0.00682813,-0.164062
-4.6510e-05,0.0857422,0.0718125,0.0061875,-0.1625
-4.6500e-05,0.0860781,0.0724375,0.00610938,-0.221094
-4.6490e-05,0.085375,0.0724375,0.00692188,-0.194531
-4.6480e-05,0.0855234,0.0699687,0.00510937,-0.264844
-4.6470e-05,0.0848594,0.0706875,0.00582813,-0.197656
-4.6460e-05,0.0857344,0.0706563,0.00732813,-0.23125
-4.6450e-05,0.0850469,0.0698125,0.006875,-0.222656
-4.6440e-05,0.0851172,0.0730937,0.00654688,-0.217969
-4.6430e-05,0.0852422,0.0725625,0.00717188,-0.224219
-4.6420e-05,0.0857969,0.071125,0.0068125,-0.229687
-4.6410e-05,0.0858516,0.0705312,0.00585938,-0.246094
-4.6400e-05,0.0861406,0.0724687,0.0074375,-0.225781
-4.6390e-05,0.0859687,0.0703438,0.00615625,-0.192969
-4.6380e-05,0.0865,0.0723125,0.00482813,-0.246875
-4.6370e-05,0.0859219,0.0715312,0.00628125,-0.2
-4.6360e-05,0.0860156,0.07175,0.006375,-0.207031
-4.6350e-05,0.0865391,0.0726563,0.0060625,-0.252344
-4.6340e-05,0.0840937,0.069625,0.0059375,-0.238281
-4.6330e-05,0.0857344,0.0732187,0.00665625,-0.217969
-4.6320e-05,0.0830703,0.07075,0.00654688,-0.241406
-4.6310e-05,0.0835156,0.074125,0.00710938,-0.2125
-4.6300e-05,0.0836797,0.0733437,0.00795313,-0.208594
-4.6290e-05,0.0825469,0.0722187,0.00623438,-0.221875
-4.6280e-05,0.0838672,0.0705312,0.00745313,-0.24375
-4.6270e-05,0.0836094,0.0716563,0.00746875,-0.264062
-4.6260e-05,0.0852109,0.07325,0.0066875,-0.249219
-4.6250e-05,0.08525,0.069875,0.00642188,-0.229687
-4.6240e-05,0.0856406,0.073375,0.00567188,-0.230469
