org.zhangbai.display/bin/org/zhangbai/display/readfile/20171202_15_25_47/tek0017.csv

Model,DPO4104B
Firmware Version,1.38

Waveform Type,Analog,Analog,Analog,Analog
Point Format,ENV,,,
Horizontal Units,s,,,
Horizontal Scale,1e-05,,,
Horizontal Delay,0,0,0,0
Sample Interval,1e-08,,,
Record Length,10000,,,
Gating,0.0% to 100.0%,0.0% to 100.0%,0.0% to 100.0%,0.0% to 100.0%
Probe Attenuation,1,1,1,1
Vertical Units,V,V,V,V
Vertical Offset,0,0,0,0
Vertical Scale,0.2,0.2,0.1,5
Vertical Position,-4.6,-1.1,-0.64,-0.54
Label,,,,
TIME,CH1,CH2,CH3,CH4
-5.0000e-05,0.105219,0.022125,0.005625,-0.174219
-4.9990e-05,0.104625,0.0243438,0.00514063,-0.207031
-4.9980e-05,0.103969,0.0194375,0.00426563,-0.161719
-4.9970e-05,0.105344,0.0240625,0.00417187,-0.194531
-4.9960e-05,0.106531,0.0227813,0.00395313,-0.134375
-4.9950e-05,0.10725,0.0212188,0.00584375,-0.195312
-4.9940e-05,0.1055,0.0216563,0.005625,-0.222656
-4.9930e-05,0.105563,0.01925,0.00573437,-0.196094
-4.9920e-05,0.107344,0.0230625,0.00735938,-0.1125
-4.9910e-05,0.107156,0.0213438,0.00626562,-0.19375
-4.9900e-05,0.105969,0.023125,0.00646875,-0.1625
-4.9890e-05,0.106406,0.0217188,0.00701562,-0.161719
-4.9880e-05,0.105094,0.0221563,0.00610938,-0.245312
-4.9870e-05,0.104188,0.0226563,0.00534375,-0.270313
-4.9860e-05,0.105594,0.0222813,0.004625,-0.128906
-4.9850e-05,0.104688,0.0215313,0.00565625,-0.107813
-4.9840e-05,0.104031,0.0226875,0.00557813,-0.189844
-4.9830e-05,0.105406,0.0223438,0.0053125,-0.204687
-4.9820e-05,0.103406,0.018875,0.00521875,-0.159375
-4.9810e-05,0.106156,0.0196563,0.00639062,-0.185938
-4.9800e-05,0.104781,0.0245313,0.006,-0.189844
-4.9790e-05,0.105719,0.0208125,0.00646875,-0.1875
-4.9780e-05,0.1045,0.0218125,0.00732812,-0.188281
-4.9770e-05,0.1035,0.0213438,0.00670312,-0.190625
-4.9760e-05,0.104313,0.0202188,0.00614062,-0.190625
-4.9750e-05,0.104281,0.023875,0.0060625,-0.136719
-4.9740e-05,0.106469,0.0231875,0.005375,-0.164062
-4.9730e-05,0.10525,0.0222813,0.00559375,-0.171094
-4.9720e-05,0.106125,0.0235313,0.00528125,-0.164844
-4.9710e-05,0.106594,0.0205,0.00475,-0.179688
-4.9700e-05,0.106094,0.0223438,0.0054375,-0.182812
-4.9690e-05,0.108469,0.022625,0.00648438,-0.135156
-4.9680e-05,0.106531,0.022375,0.006,-0.203906
-4.9670e-05,0.107938,0.0223125,0.00582813,-0.146094
-4.9660e-05,0.104938,0.022375,0.0075,-0.138281
-4.9650e-05,0.10525,0.0234063,0.0056875,-0.140625
-4.9640e-05,0.108031,0.02275,0.00715625,-0.159375
-4.9630e-05,0.104656,0.0209688,0.00646875,-0.177344
-4.9620e-05,0.108219,0.0238125,0.0069375,-0.186719
-4.9610e-05,0.103188,0.0219688,0.00671875,-0.19375
-4.9600e-05,0.103906,0.0229375,0.00473437,-0.107813
-4.9590e-05,0.10525,0.0219375,0.00554687,-0.145313
-4.9580e-05,0.1065,0.021125,0.00503125,-0.232813
-4.9570e-05,0.107313,0.0244063,0.00529687,-0.175
-4.9560e-05,0.106063,0.0223438,0.00498437,-0.167187
-4.9550e-05,0.104625,0.022375,0.00471875,-0.11875
-4.9540e-05,0.105594,0.024375,0.00554687,-0.166406
-4.9530e-05,0.10375,0.022625,0.00623438,-0.126562
-4.9520e-05,0.103219,0.0231563,0.00726562,-0.182812
-4.9510e-05,0.106813,0.0233125,0.00754688,-0.211719
-4.9500e-05,0.105594,0.0247813,0.00639062,-0.200781
-4.9490e-05,0.108594,0.02225,0.00579687,-0.160938
-4.9480e-05,0.105563,0.024375,0.00595313,-0.151562
-4.9470e-05,0.106094,0.0218125,0.00546875,-0.147656
-4.9460e-05,0.107219,0.0225313,0.00448437,-0.234375
-4.9450e-05,0.110094,0.0220313,0.00579687,-0.2125
-4.9440e-05,0.105188,0.0219063,0.0046875,-0.158594
-4.9430e-05,0.105906,0.0220938,0.00592188,-0.239063
-4.9420e-05,0.105656,0.022625,0.00570313,-0.1875
-4.9410e-05,0.10425,0.0219375,0.00590625,-0.174219
-4.9400e-05,0.106031,0.022375,0.00645312,-0.16875
-4.9390e-05,0.105656,0.0209063,0.0068125,-0.155469
-4.9380e-05,0.104375,0.0229063,0.00653125,-0.210938
-4.9370e-05,0.10725,0.022625,0.00720312,-0.203906
-4.9360e-05,0.105438,0.0234375,0.00517187,-0.199219
-4.9350e-05,0.10575,0.0233125,0.00775,-0.1625
-4.9340e-05,0.106,0.0217813,0.00654688,-0.160156
-4.9330e-05,0.107,0.02375,0.00578125,-0.128906
-4.9320e-05,0.108406,0.0210938,0.00457813,-0.161719
-4.9310e-05,0.106625,0.0238438,0.005,-0.160938
-4.9300e-05,0.109375,0.0241875,0.00645312,-0.173437
-4.9290e-05,0.108438,0.0219688,0.00698438,-0.240625
-4.9280e-05,0.105938,0.0235,0.007875,-0.222656
-4.9270e-05,0.106438,0.02225,0.0070625,-0.18125
-4.9260e-05,0.104719,0.0219375,0.00690625,-0.192188
-4.9250e-05,0.10675,0.0226875,0.007125,-0.189844
-4.9240e-05,0.106406,0.0239063,0.0078125,-0.203906
-4.9230e-05,0.108031,0.023875,0.00548437,-0.210156
-4.9220e-05,0.107438,0.02275,0.00625,-0.217969
-4.9210e-05,0.106281,0.021375,0.00614062,-0.174219
-4.9200e-05,0.109406,0.0216875,0.00548437,-0.175781
-4.9190e-05,0.107594,0.0218438,0.00651562,-0.226562
-4.9180e-05,0.106875,0.0234375,0.00507813,-0.170313
-4.9170e-05,0.103875,0.02025,0.0046875,-0.16875
-4.9160e-05,0.107344,0.0218438,0.00640625,-0.121094
-4.9150e-05,0.107,0.0215625,0.00592188,-0.178125
-4.9140e-05,0.106375,0.0239063,0.00675,-0.165625
-4.9130e-05,0.106875,0.0241563,0.00725,-0.205469
-4.9120e-05,0.105031,0.0207813,0.00539063,-0.164062
-4.9110e-05,0.107344,0.0232813,0.00653125,-0.207031
-4.9100e-05,0.110375,0.0235,0.00629688,-0.205469
-4.9090e-05,0.1065,0.0251875,0.00629688,-0.140625
-4.9080e-05,0.109688,0.0224063,0.00504687,-0.215625
-4.9070e-05,0.109188,0.0245625,0.00575,-0.175
-4.9060e-05,0.107813,0.022875,0.00575,-0.169531
-4.9050e-05,0.107344,0.0240313,0.00614062,-0.100781
-4.9040e-05,0.107344,0.0219063,0.00639062,-0.16875
-4.9030e-05,0.106469,0.0223125,0.005125,-0.194531
-4.9020e-05,0.106813,0.02125,0.005625,-0.225781
-4.9010e-05,0.104406,0.0228438,0.00646875,-0.200781
-4.9000e-05,0.102688,0.0229063,0.00670312,-0.200781
-4.8990e-05,0.1055,0.0236875,0.006625,-0.151562
-4.8980e-05,0.105594,0.0218125,0.00671875,-0.160156
-4.8970e-05,0.105844,0.023625,0.00504687,-0.185938
-4.8960e-05,0.108375,0.0226875,0.00607812,-0.151562
-4.8950e-05,0.106375,0.0232188,0.00551563,-0.174219
-4.8940e-05,0.10675,0.0249375,0.00426563,-0.149219
-4.8930e-05,0.10675,0.0234063,0.00596875,-0.185938
-4.8920e-05,0.107719,0.0242188,0.005375,-0.183594
-4.8910e-05,0.109188,0.019875,0.00642188,-0.18125
-4.8900e-05,0.107906,0.0231875,0.0056875,-0.234375
-4.8890e-05,0.107531,0.0241875,0.00573437,-0.204687
-4.8880e-05,0.110344,0.0241563,0.00698438,-0.179688
-4.8870e-05,0.10625,0.0236563,0.00559375,-0.169531
-4.8860e-05,0.105844,0.0249375,0.00628125,-0.167969
-4.8850e-05,0.105156,0.0216875,0.00525,-0.145313
-4.8840e-05,0.106344,0.0232813,0.00564063,-0.169531
-4.8830e-05,0.108,0.02475,0.006125,-0.141406
-4.8820e-05,0.105781,0.0227188,0.005375,-0.191406
-4.8810e-05,0.104469,0.02,0.00617188,-0.260937
-4.8800e-05,0.109094,0.0208125,0.00540625,-0.2125
-4.8790e-05,0.105188,0.0227188,0.00751562,-0.173437
-4.8780e-05,0.105063,0.021875,0.00665625,-0.178906
-4.8770e-05,0.105563,0.0221563,0.00717188,-0.128906
-4.8760e-05,0.106375,0.0209375,0.00646875,-0.125
-4.8750e-05,0.104469,0.0236875,0.0066875,-0.104687
-4.8740e-05,0.103688,0.0235938,0.00498437,-0.13125
-4.8730e-05,0.105281,0.0217188,0.00521875,-0.1875
-4.8720e-05,0.105906,0.0224063,0.00607812,-0.214844
-4.8710e-05,0.108656,0.0251563,0.00557813,-0.161719
-4.8700e-05,0.108219,0.0232813,0.00575,-0.189062
-4.8690e-05,0.107375,0.024625,0.00573437,-0.117969
-4.8680e-05,0.106688,0.0241563,0.00515625,-0.150781
-4.8670e-05,0.105563,0.0252813,0.00604688,-0.18125
-4.8660e-05,0.107563,0.0207188,0.006,-0.15625
-4.8650e-05,0.106875,0.025375,0.00610938,-0.210156
-4.8640e-05,0.106688,0.0204688,0.00717188,-0.159375
-4.8630e-05,0.107125,0.0215938,0.00625,-0.174219
-4.8620e-05,0.106094,0.0226563,0.00590625,-0.210156
-4.8610e-05,0.107531,0.0230625,0.0060625,-0.174219
-4.8600e-05,0.104188,0.0233125,0.00545313,-0.163281
-4.8590e-05,0.105281,0.024,0.00542187,-0.146875
-4.8580e-05,0.106656,0.0218438,0.00501563,-0.184375
-4.8570e-05,0.104875,0.0241875,0.00551563,-0.19375
-4.8560e-05,0.106938,0.0215625,0.00640625,-0.209375
-4.8550e-05,0.108063,0.0230938,0.00503125,-0.191406
-4.8540e-05,0.107125,0.0238125,0.00567187,-0.229687
-4.8530e-05,0.10625,0.0204375,0.00598438,-0.144531
-4.8520e-05,0.106875,0.0212188,0.0070625,-0.167187
-4.8510e-05,0.106719,0.0220313,0.00595313,-0.178125
-4.8500e-05,0.103875,0.0235313,0.00803125,-0.164844
-4.8490e-05,0.105438,0.0235938,0.00667188,-0.1375
-4.8480e-05,0.105125,0.022875,0.00670312,-0.16875
-4.8470e-05,0.106344,0.0235625,0.00696875,-0.160156
-4.8460e-05,0.107906,0.0248125,0.00664062,-0.150781
-4.8450e-05,0.106875,0.0218438,0.00703125,-0.142187
-4.8440e-05,0.108188,0.0225,0.00559375,-0.152344
-4.8430e-05,0.10725,0.0236563,0.00473437,-0.185938
-4.8420e-05,0.109594,0.021125,0.00539063,-0.175781
-4.8410e-05,0.107969,0.0228125,0.00565625,-0.164844
-4.8400e-05,0.108219,0.0217813,0.00542187,-0.207031
-4.8390e-05,0.105594,0.0216563,0.00517187,-0.186719
-4.8380e-05,0.106469,0.0232813,0.00596875,-0.209375
-4.8370e-05,0.10875,0.022,0.00542187,-0.166406
-4.8360e-05,0.105969,0.024875,0.00598438,-0.191406
-4.8350e-05,0.104656,0.0245938,0.0058125,-0.185938
-4.8340e-05,0.106531,0.024125,0.0055625,-0.121094
-4.8330e-05,0.105875,0.0209375,0.0050625,-0.180469
-4.8320e-05,0.105531,0.0235938,0.00540625,-0.159375
-4.8310e-05,0.103844,0.024,0.00439063,-0.160156
-4.8300e-05,0.105625,0.0238438,0.00546875,-0.142969
-4.8290e-05,0.106625,0.0223438,0.00604688,-0.189062
-4.8280e-05,0.107219,0.0233438,0.00551563,-0.160938
-4.8270e-05,0.106688,0.0215625,0.0055,-0.207813
-4.8260e-05,0.106813,0.0242188,0.00557813,-0.150781
-4.8250e-05,0.104875,0.022,0.00575,-0.167969
-4.8240e-05,0.104906,0.0229688,0.00817188,-0.177344
-4.8230e-05,0.109188,0.0234063,0.00626562,-0.191406
-4.8220e-05,0.106375,0.0231563,0.00614062,-0.164062
-4.8210e-05,0.105063,0.0266563,0.00639062,-0.192188
-4.8200e-05,0.106938,0.0255938,0.00570313,-0.159375
-4.8190e-05,0.104438,0.0234375,0.00595313,-0.2
-4.8180e-05,0.106156,0.0244375,0.00479687,-0.139063
-4.8170e-05,0.105,0.0232188,0.0050625,-0.189062
-4.8160e-05,0.108813,0.019,0.00559375,-0.172656
-4.8150e-05,0.105656,0.0227188,0.0063125,-0.151562
-4.8140e-05,0.106313,0.0235313,0.00660938,-0.161719
-4.8130e-05,0.107063,0.0234063,0.00642188,-0.179688
-4.8120e-05,0.106031,0.0241563,0.00692188,-0.235156
-4.8110e-05,0.103844,0.022875,0.00665625,-0.140625
-4.8100e-05,0.105313,0.0225,0.00701562,-0.196094
-4.8090e-05,0.104469,0.0238438,0.00642188,-0.179688
-4.8080e-05,0.107031,0.0230938,0.0063125,-0.2
-4.8070e-05,0.106813,0.0230625,0.00534375,-0.189844
-4.8060e-05,0.107563,0.024375,0.00559375,-0.164844
-4.8050e-05,0.106563,0.0244688,0.00442187,-0.175
-4.8040e-05,0.108531,0.0238438,0.0058125,-0.167187
-4.8030e-05,0.107938,0.0229375,0.0039375,-0.229687
-4.8020e-05,0.105906,0.02175,0.00545313,-0.178906
-4.8010e-05,0.108969,0.0244375,0.007,-0.192188
-4.8000e-05,0.109125,0.0218125,0.0063125,-0.176563
-4.7990e-05,0.106563,0.0232188,0.00704688,-0.192969
-4.7980e-05,0.106969,0.023,0.00775,-0.142969
-4.7970e-05,0.106625,0.025125,0.00782812,-0.157031
-4.7960e-05,0.107031,0.0211875,0.00660938,-0.192188
-4.7950e-05,0.104625,0.0218125,0.0056875,-0.183594
-4.7940e-05,0.106344,0.0232813,0.00585938,-0.141406
-4.7930e-05,0.106094,0.0254063,0.00659375,-0.214062
-4.7920e-05,0.105656,0.0225625,0.00525,-0.189844
-4.7910e-05,0.105125,0.022125,0.005375,-0.192969
-4.7900e-05,0.1065,0.02425,0.00459375,-0.213281
-4.7890e-05,0.107344,0.0230313,0.00576563,-0.216406
-4.7880e-05,0.106188,0.0240625,0.00670312,-0.228906
-4.7870e-05,0.105656,0.0229063,0.0055625,-0.170313
-4.7860e-05,0.107219,0.023125,0.00679688,-0.174219
-4.7850e-05,0.106469,0.0220625,0.00651562,-0.135937
-4.7840e-05,0.104813,0.0233438,0.00659375,-0.139063
-4.7830e-05,0.10575,0.0237813,0.00507813,-0.186719
-4.7820e-05,0.105031,0.0234688,0.00590625,-0.190625
-4.7810e-05,0.108531,0.023375,0.00514063,-0.189844
-4.7800e-05,0.107906,0.0220625,0.00573437,-0.164062
-4.7790e-05,0.106969,0.021875,0.00560937,-0.178906
-4.7780e-05,0.106031,0.0228438,0.00465625,-0.18125
-4.7770e-05,0.1075,0.0220938,0.0061875,-0.146094
-4.7760e-05,0.108594,0.02125,0.00590625,-0.175
-4.7750e-05,0.10625,0.0245313,0.00626562,-0.184375
-4.7740e-05,0.108813,0.0213125,0.00640625,-0.145313
-4.7730e-05,0.104031,0.0244063,0.00573437,-0.154688
-4.7720e-05,0.103938,0.0225313,0.00567187,-0.185938
-4.7710e-05,0.10525,0.0248125,0.00626562,-0.201563
-4.7700e-05,0.104031,0.024375,0.00671875,-0.179688
-4.7690e-05,0.103938,0.0245,0.00715625,-0.176563
-4.7680e-05,0.107219,0.0243438,0.00532813,-0.178125
-4.7670e-05,0.105094,0.0248438,0.00667188,-0.179688
-4.7660e-05,0.1065,0.0259688,0.00729688,-0.182812
-4.7650e-05,0.104531,0.0220313,0.00601562,-0.185938
-4.7640e-05,0.107406,0.0239688,0.00626562,-0.185156
-4.7630e-05,0.107313,0.0206875,0.00553125,-0.185156
-4.7620e-05,0.107438,0.0248125,0.006,-0.160156
-4.7610e-05,0.105469,0.020875,0.00659375,-0.139844
-4.7600e-05,0.108063,0.0252188,0.00640625,-0.21875
-4.7590e-05,0.107344,0.0245938,0.00714062,-0.213281
-4.7580e-05,0.105719,0.0208438,0.00634375,-0.19375
-4.7570e-05,0.107031,0.0249375,0.00657812,-0.175781
-4.7560e-05,0.109813,0.0221563,0.00657812,-0.141406
-4.7550e-05,0.109781,0.0215313,0.00545313,-0.229687
-4.7540e-05,0.106781,0.021125,0.00548437,-0.182031
-4.7530e-05,0.107406,0.0221563,0.00571875,-0.15625
-4.7520e-05,0.108625,0.0224063,0.00507813,-0.145313
-4.7510e-05,0.104875,0.0244688,0.00460937,-0.203906
-4.7500e-05,0.108281,0.0238438,0.00546875,-0.21875
-4.7490e-05,0.105719,0.0233125,0.0060625,-0.257812
-4.7480e-05,0.106563,0.0241875,0.00642188,-0.183594
-4.7470e-05,0.105813,0.0220938,0.0055,-0.165625
-4.7460e-05,0.103438,0.0231875,0.00703125,-0.167969
-4.7450e-05,0.103781,0.0232813,0.0065,-0.184375
-4.7440e-05,0.107281,0.022125,0.00773438,-0.177344
-4.7430e-05,0.106438,0.0219688,0.00578125,-0.189844
-4.7420e-05,0.108875,0.024625,0.0069375,-0.15
-4.7410e-05,0.106406,0.0214375,0.00507813,-0.166406
-4.7400e-05,0.106281,0.0237813,0.00659375,-0.175
-4.7390e-05,0.106625,0.0222813,0.00623438,-0.135937
-4.7380e-05,0.107844,0.0223438,0.00554687,-0.16875
-4.7370e-05,0.107125,0.0251875,0.00595313,-0.132031
-4.7360e-05,0.106,0.0205313,0.00701562,-0.16875
-4.7350e-05,0.106969,0.0231563,0.00757812,-0.160938
-4.7340e-05,0.106156,0.0232813,0.006875,-0.148438
-4.7330e-05,0.106063,0.0218438,0.00570313,-0.146094
-4.7320e-05,0.104531,0.0217813,0.007625,-0.174219
-4.7310e-05,0.108906,0.0239375,0.0065,-0.221875
-4.7300e-05,0.106469,0.0234063,0.00635938,-0.184375
-4.7290e-05,0.106844,0.0246875,0.005875,-0.18125
-4.7280e-05,0.107625,0.022875,0.00609375,-0.201563
-4.7270e-05,0.105906,0.0260938,0.00548437,-0.170313
-4.7260e-05,0.108031,0.0229688,0.00528125,-0.185938
-4.7250e-05,0.107094,0.0255,0.00540625,-0.140625
-4.7240e-05,0.106719,0.0243438,0.00453125,-0.194531
-4.7230e-05,0.104406,0.0224688,0.00628125,-0.178906
-4.7220e-05,0.106813,0.0219063,0.00560937,-0.186719
-4.7210e-05,0.106563,0.0244688,0.00601562,-0.217969
-4.7200e-05,0.103875,0.0254688,0.0051875,-0.186719
-4.7190e-05,0.106313,0.024625,0.00576563,-0.171875
-4.7180e-05,0.105594,0.0238438,0.00665625,-0.19375
-4.7170e-05,0.109313,0.0217188,0.00575,-0.147656
-4.7160e-05,0.1045,0.0244688,0.00509375,-0.2
-4.7150e-05,0.109188,0.0212813,0.00582813,-0.210938
-4.7140e-05,0.106219,0.0255,0.00567187,-0.235937
-4.7130e-05,0.106563,0.0247188,0.00545313,-0.155469
-4.7120e-05,0.109688,0.0234375,0.00535937,-0.2125
-4.7110e-05,0.107656,0.0256875,0.00592188,-0.159375
-4.7100e-05,0.106469,0.02125,0.00632812,-0.207031
-4.7090e-05,0.106156,0.02375,0.006125,-0.117969
-4.7080e-05,0.104969,0.0216875,0.00515625,-0.169531
-4.7070e-05,0.105156,0.0209375,0.00754688,-0.15625
-4.7060e-05,0.107469,0.0228438,0.00615625,-0.173437
-4.7050e-05,0.106625,0.0247813,0.00578125,-0.184375
-4.7040e-05,0.1075,0.0235313,0.00704688,-0.161719
-4.7030e-05,0.1075,0.0247813,0.00554687,-0.186719
-4.7020e-05,0.106906,0.0230938,0.00601562,-0.175781
-4.7010e-05,0.106375,0.0241563,0.00515625,-0.184375
-4.7000e-05,0.107719,0.0227188,0.00645312,-0.178906
-4.6990e-05,0.1085,0.0237188,0.00648438,-0.165625
-4.6980e-05,0.105656,0.0219063,0.0058125,-0.205469
-4.6970e-05,0.108438,0.0217188,0.00621875,-0.189062
-4.6960e-05,0.105094,0.0253125,0.00629688,-0.178125
-4.6950e-05,0.106625,0.0230313,0.00603125,-0.19375
-4.6940e-05,0.105969,0.0244375,0.00617188,-0.173437
-4.6930e-05,0.107438,0.0252813,0.00475,-0.205469
-4.6920e-05,0.109656,0.02475,0.004375,-0.153906
-4.6910e-05,0.107656,0.0230313,0.00476563,-0.190625
-4.6900e-05,0.106406,0.022875,0.00485937,-0.169531
-4.6890e-05,0.105531,0.0241563,0.00514063,-0.141406
-4.6880e-05,0.10875,0.0229375,0.00701562,-0.142969
-4.6870e-05,0.107,0.0218438,0.00525,-0.134375
-4.6860e-05,0.107594,0.0231563,0.00645312,-0.23125
-4.6850e-05,0.110406,0.0205,0.00729688,-0.164844
-4.6840e-05,0.103625,0.022625,0.00796875,-0.15625
-4.6830e-05,0.105313,0.0231875,0.007,-0.167187
-4.6820e-05,0.105719,0.0242813,0.0060625,-0.138281
-4.6810e-05,0.106094,0.02425,0.0065625,-0.177344
-4.6800e-05,0.105594,0.0215,0.00614062,-0.178125
-4.6790e-05,0.106344,0.0234375,0.00546875,-0.171875
-4.6780e-05,0.106594,0.0231563,0.0050625,-0.167187
-4.6770e-05,0.108188,0.023875,0.00559375,-0.139063
-4.6760e-05,0.104969,0.023125,0.004,-0.19375
-4.6750e-05,0.108031,0.02375,0.00473437,-0.1625
-4.6740e-05,0.110063,0.0244688,0.00553125,-0.19375
-4.6730e-05,0.108719,0.0219375,0.00564063,-0.147656
-4.6720e-05,0.107594,0.0228125,0.00557813,-0.171094
-4.6710e-05,0.106156,0.0223438,0.006125,-0.185938
-4.6700e-05,0.105375,0.023375,0.00539063,-0.216406
-4.6690e-05,0.106719,0.0239688,0.00717188,-0.178906
-4.6680e-05,0.105063,0.0240625,0.00642188,-0.214062
-4.6670e-05,0.102844,0.0215313,0.00428125,-0.167187
-4.6660e-05,0.107344,0.022875,0.00621875,-0.200781
-4.6650e-05,0.105188,0.0239375,0.00476563,-0.175781
-4.6640e-05,0.106406,0.023125,0.00634375,-0.140625
-4.6630e-05,0.104938,0.0211875,0.00446875,-0.230469
-4.6620e-05,0.106406,0.022375,0.00692188,-0.185156
-4.6610e-05,0.107281,0.0215313,0.00709375,-0.1875
-4.6600e-05,0.105688,0.0227813,0.00625,-0.175
-4.6590e-05,0.10725,0.024875,0.0069375,-0.120312
-4.6580e-05,0.1065,0.0245625,0.00725,-0.171094
-4.6570e-05,0.106375,0.0235,0.00690625,-0.189062
-4.6560e-05,0.105188,0.024,0.00746875,-0.165625
-4.6550e-05,0.104094,0.023,0.00659375,-0.167969
-4.6540e-05,0.106531,0.0231563,0.00598438,-0.121094
-4.6530e-05,0.107594,0.0226875,0.00559375,-0.170313
-4.6520e-05,0.106469,0.02475,0.00465625,-0.180469
-4.6510e-05,0.106813,0.02375,0.0055,-0.158594
-4.6500e-05,0.107094,0.0245,0.00589063,-0.135937
-4.6490e-05,0.108313,0.0201563,0.00564063,-0.220312
-4.6480e-05,0.107156,0.023375,0.00651562,-0.20625
-4.6470e-05,0.107406,0.022625,0.00601562,-0.213281
-4.6460e-05,0.10725,0.0220625,0.0059375,-0.171875
-4.6450e-05,0.107219,0.0230625,0.0085,-0.182031
-4.6440e-05,0.106719,0.023125,0.008375,-0.201563
-4.6430e-05,0.106344,0.0226563,0.006125,-0.217969
-4.6420e-05,0.104438,0.02275,0.00610938,-0.221875
-4.6410e-05,0.107094,0.0234063,0.00592188,-0.149219
-4.6400e-05,0.104188,0.0223438,0.00573437,-0.175781
-4.6390e-05,0.10725,0.0239688,0.003625,-0.180469
-4.6380e-05,0.104781,0.0213438,0.00523437,-0.155469
-4.6370e-05,0.105969,0.0232188,0.00553125,-0.142187
-4.6360e-05,0.107281,0.022625,0.00621875,-0.160938
-4.6350e-05,0.106156,0.023,0.007125,-0.16875
-4.6340e-05,0.104719,0.0245313,0.00621875,-0.198437
-4.6330e-05,0.106,0.0232813,0.00615625,-0.132812
-4.6320e-05,0.107219,0.0230625,0.00671875,-0.163281
-4.6310e-05,0.106625,0.0240625,0.00764062,-0.158594
-4.6300e-05,0.107906,0.0232813,0.00717188,-0.124219
-4.6290e-05,0.103781,0.02025,0.00696875,-0.175781
-4.6280e-05,0.107531,0.0245625,0.00729688,-0.185156
-4.6270e-05,0.104781,0.022875,0.00732812,-0.14375
-4.6260e-05,0.108313,0.0216563,0.00482813,-0.157812
-4.6250e-05,0.10575,0.0198438,0.00398437,-0.192969
-4.6240e-05,0.107906,0.0241563,0.0051875,-0.166406
-4.6230e-05,0.105656,0.0232188,0.006625,-0.216406
-4.6220e-05,0.106094,0.0203125,0.006125,-0.19375
-4.6210e-05,0.105406,0.0227188,0.0051875,-0.21875
-4.6200e-05,0.1045,0.022375,0.00653125,-0.164844
-4.6190e-05,0.103375,0.0234063,0.00707812,-0.153906
-4.6180e-05,0.106406,0.0244063,0.00703125,-0.228906
-4.6170e-05,0.103625,0.0240625,0.00685938,-0.132031
-4.6160e-05,0.106188,0.0217188,0.00657812,-0.144531
-4.6150e-05,0.103969,0.0245,0.00585938,-0.185156
